BUD-749

API Name: Create Contact Dynamic form

Method:Post

URL:http://localhost:49419/Services/Admin/CustomColumnService.svc/IosGetContactFields


Request:

{
	"baseEntity": {
		"BaseUserID": 1,
		"BaseSubscriptionID": "Buddy_001",
		"BaseDBName": "BuddyCRMDB_001",
		"CustomEditId": 0
	}

}

Response:
{
  "BaseDBName": null,
  "BaseSubscriptionID": null,
  "BaseUserID": 0,
  "CustomEditId": 0,
  "FieldName": null,
  "Ip": null,
  "Code": 100,
  "CustomColumns": null,
  "Data": null,
  "Message": "SUCCESS",
  "ScalerData": {
    "AdvancedContactList": [
      {
        "FieldDataType": "Dropdown",
        "FieldName": "abcts",
        "FieldNameMaster": "Title",
        "ID": 14,
        "IsExisting": true,
        "IsMandatory": true,
        "IsVisible": true,
        "Priority": null,
        "Value": null,
        "dropDownValues": [
          {
            "AllCustomField": null,
            "FieldName": null,
            "FieldNameMaster": null,
            "ID": 0,
            "IsExisting": false,
            "IsForAccount": false,
            "IsForLead": false,
            "IsForOportunity": false,
            "IsSelected": false,
            "MainId": 103,
            "Name": "Please select"
          },
          {
            "AllCustomField": null,
            "FieldName": null,
            "FieldNameMaster": null,
            "ID": 1,
            "IsExisting": false,
            "IsForAccount": false,
            "IsForLead": false,
            "IsForOportunity": false,
            "IsSelected": false,
            "MainId": 104,
            "Name": "Mr"
          },
          {
            "AllCustomField": null,
            "FieldName": null,
            "FieldNameMaster": null,
            "ID": 3,
            "IsExisting": false,
            "IsForAccount": false,
            "IsForLead": false,
            "IsForOportunity": false,
            "IsSelected": false,
            "MainId": 106,
            "Name": "Mrs"
          },
          {
            "AllCustomField": null,
            "FieldName": null,
            "FieldNameMaster": null,
            "ID": 4,
            "IsExisting": false,
            "IsForAccount": false,
            "IsForLead": false,
            "IsForOportunity": false,
            "IsSelected": false,
            "MainId": 107,
            "Name": "Ms"
          },
          {
            "AllCustomField": null,
            "FieldName": null,
            "FieldNameMaster": null,
            "ID": 5,
            "IsExisting": false,
            "IsForAccount": false,
            "IsForLead": false,
            "IsForOportunity": false,
            "IsSelected": false,
            "MainId": 108,
            "Name": "Dr"
          }
        ]
      },
      {
        "FieldDataType": "Text",
        "FieldName": "First Name",
        "FieldNameMaster": "FirstName",
        "ID": 15,
        "IsExisting": true,
        "IsMandatory": true,
        "IsVisible": true,
        "Priority": null,
        "Value": null,
        "dropDownValues": null
      },
      {
        "FieldDataType": "Text",
        "FieldName": "Last Name",
        "FieldNameMaster": "LastName",
        "ID": 16,
        "IsExisting": true,
        "IsMandatory": true,
        "IsVisible": true,
        "Priority": null,
        "Value": null,
        "dropDownValues": null
      },
      {
        "FieldDataType": "Text",
        "FieldName": "Job Title",
        "FieldNameMaster": "JobTitle",
        "ID": 17,
        "IsExisting": true,
        "IsMandatory": false,
        "IsVisible": true,
        "Priority": null,
        "Value": null,
        "dropDownValues": null
      },
      {
        "FieldDataType": "Text",
        "FieldName": "Email",
        "FieldNameMaster": "Email",
        "ID": 18,
        "IsExisting": true,
        "IsMandatory": false,
        "IsVisible": true,
        "Priority": null,
        "Value": null,
        "dropDownValues": null
      },
      {
        "FieldDataType": "Dropdown",
        "FieldName": "Test function",
        "FieldNameMaster": "JobFunction",
        "ID": 49,
        "IsExisting": true,
        "IsMandatory": false,
        "IsVisible": true,
        "Priority": null,
        "Value": null,
        "dropDownValues": [
          {
            "AllCustomField": null,
            "FieldName": null,
            "FieldNameMaster": null,
            "ID": 3,
            "IsExisting": false,
            "IsForAccount": false,
            "IsForLead": false,
            "IsForOportunity": false,
            "IsSelected": false,
            "MainId": 410,
            "Name": "Sales"
          },
          {
            "AllCustomField": null,
            "FieldName": null,
            "FieldNameMaster": null,
            "ID": 4,
            "IsExisting": false,
            "IsForAccount": false,
            "IsForLead": false,
            "IsForOportunity": false,
            "IsSelected": false,
            "MainId": 411,
            "Name": "Marketing"
          },
          {
            "AllCustomField": null,
            "FieldName": null,
            "FieldNameMaster": null,
            "ID": 5,
            "IsExisting": false,
            "IsForAccount": false,
            "IsForLead": false,
            "IsForOportunity": false,
            "IsSelected": false,
            "MainId": 412,
            "Name": "HR / Training"
          },
          {
            "AllCustomField": null,
            "FieldName": null,
            "FieldNameMaster": null,
            "ID": 6,
            "IsExisting": false,
            "IsForAccount": false,
            "IsForLead": false,
            "IsForOportunity": false,
            "IsSelected": false,
            "MainId": 413,
            "Name": "Operations"
          },
          {
            "AllCustomField": null,
            "FieldName": null,
            "FieldNameMaster": null,
            "ID": 7,
            "IsExisting": false,
            "IsForAccount": false,
            "IsForLead": false,
            "IsForOportunity": false,
            "IsSelected": false,
            "MainId": 414,
            "Name": "Finance"
          },
          {
            "AllCustomField": null,
            "FieldName": null,
            "FieldNameMaster": null,
            "ID": 8,
            "IsExisting": false,
            "IsForAccount": false,
            "IsForLead": false,
            "IsForOportunity": false,
            "IsSelected": false,
            "MainId": 415,
            "Name": "Production"
          },
          {
            "AllCustomField": null,
            "FieldName": null,
            "FieldNameMaster": null,
            "ID": 9,
            "IsExisting": false,
            "IsForAccount": false,
            "IsForLead": false,
            "IsForOportunity": false,
            "IsSelected": false,
            "MainId": 416,
            "Name": "Purchasing"
          },
          {
            "AllCustomField": null,
            "FieldName": null,
            "FieldNameMaster": null,
            "ID": 11,
            "IsExisting": false,
            "IsForAccount": false,
            "IsForLead": false,
            "IsForOportunity": false,
            "IsSelected": false,
            "MainId": 418,
            "Name": "IT"
          },
          {
            "AllCustomField": null,
            "FieldName": null,
            "FieldNameMaster": null,
            "ID": 12,
            "IsExisting": false,
            "IsForAccount": false,
            "IsForLead": false,
            "IsForOportunity": false,
            "IsSelected": false,
            "MainId": 419,
            "Name": "Other"
          },
          {
            "AllCustomField": null,
            "FieldName": null,
            "FieldNameMaster": null,
            "ID": 13,
            "IsExisting": false,
            "IsForAccount": false,
            "IsForLead": false,
            "IsForOportunity": false,
            "IsSelected": false,
            "MainId": 1657,
            "Name": "Test"
          }
        ]
      },
      {
        "FieldDataType": "dropdown",
        "FieldName": "Job Level",
        "FieldNameMaster": "JobLevel",
        "ID": 50,
        "IsExisting": true,
        "IsMandatory": false,
        "IsVisible": true,
        "Priority": null,
        "Value": null,
        "dropDownValues": [
          {
            "AllCustomField": null,
            "FieldName": null,
            "FieldNameMaster": null,
            "ID": 1,
            "IsExisting": false,
            "IsForAccount": false,
            "IsForLead": false,
            "IsForOportunity": false,
            "IsSelected": false,
            "MainId": 404,
            "Name": "Non-Manager"
          },
          {
            "AllCustomField": null,
            "FieldName": null,
            "FieldNameMaster": null,
            "ID": 3,
            "IsExisting": false,
            "IsForAccount": false,
            "IsForLead": false,
            "IsForOportunity": false,
            "IsSelected": false,
            "MainId": 406,
            "Name": "Middle Manager"
          },
          {
            "AllCustomField": null,
            "FieldName": null,
            "FieldNameMaster": null,
            "ID": 4,
            "IsExisting": false,
            "IsForAccount": false,
            "IsForLead": false,
            "IsForOportunity": false,
            "IsSelected": false,
            "MainId": 407,
            "Name": "Senior Manager"
          },
          {
            "AllCustomField": null,
            "FieldName": null,
            "FieldNameMaster": null,
            "ID": 5,
            "IsExisting": false,
            "IsForAccount": false,
            "IsForLead": false,
            "IsForOportunity": false,
            "IsSelected": false,
            "MainId": 408,
            "Name": "Director / C-Level"
          }
        ]
      },
      {
        "FieldDataType": "Text",
        "FieldName": "Building",
        "FieldNameMaster": "Building",
        "ID": 11,
        "IsExisting": true,
        "IsMandatory": false,
        "IsVisible": true,
        "Priority": null,
        "Value": null,
        "dropDownValues": null
      },
      {
        "FieldDataType": "Text",
        "FieldName": "Street",
        "FieldNameMaster": "Street",
        "ID": 12,
        "IsExisting": true,
        "IsMandatory": false,
        "IsVisible": true,
        "Priority": null,
        "Value": null,
        "dropDownValues": null
      },
      {
        "FieldDataType": "Text",
        "FieldName": "City",
        "FieldNameMaster": "City",
        "ID": 13,
        "IsExisting": true,
        "IsMandatory": false,
        "IsVisible": true,
        "Priority": null,
        "Value": null,
        "dropDownValues": null
      },
      {
        "FieldDataType": "Text",
        "FieldName": "ZipCode",
        "FieldNameMaster": "ZipCode",
        "ID": 36,
        "IsExisting": true,
        "IsMandatory": false,
        "IsVisible": true,
        "Priority": null,
        "Value": null,
        "dropDownValues": null
      },
      {
        "FieldDataType": "Text",
        "FieldName": "State",
        "FieldNameMaster": "State",
        "ID": 34,
        "IsExisting": true,
        "IsMandatory": false,
        "IsVisible": true,
        "Priority": null,
        "Value": null,
        "dropDownValues": null
      },
      {
        "FieldDataType": "DropDown",
        "FieldName": "Country",
        "FieldNameMaster": "CountryID",
        "ID": 35,
        "IsExisting": true,
        "IsMandatory": false,
        "IsVisible": true,
        "Priority": null,
        "Value": null,
        "dropDownValues": [
          {
            "AllCustomField": null,
            "FieldName": null,
            "FieldNameMaster": null,
            "ID": 0,
            "IsExisting": false,
            "IsForAccount": false,
            "IsForLead": false,
            "IsForOportunity": false,
            "IsSelected": false,
            "MainId": 141,
            "Name": "Please Select"
          },
          {
            "AllCustomField": null,
            "FieldName": null,
            "FieldNameMaster": null,
            "ID": 1,
            "IsExisting": false,
            "IsForAccount": false,
            "IsForLead": false,
            "IsForOportunity": false,
            "IsSelected": false,
            "MainId": 142,
            "Name": "Afghanistan"
          },
          {
            "AllCustomField": null,
            "FieldName": null,
            "FieldNameMaster": null,
            "ID": 3,
            "IsExisting": false,
            "IsForAccount": false,
            "IsForLead": false,
            "IsForOportunity": false,
            "IsSelected": false,
            "MainId": 144,
            "Name": "Andorra"
          },
          {
            "AllCustomField": null,
            "FieldName": null,
            "FieldNameMaster": null,
            "ID": 4,
            "IsExisting": false,
            "IsForAccount": false,
            "IsForLead": false,
            "IsForOportunity": false,
            "IsSelected": false,
            "MainId": 145,
            "Name": "Angola"
          },
          {
            "AllCustomField": null,
            "FieldName": null,
            "FieldNameMaster": null,
            "ID": 5,
            "IsExisting": false,
            "IsForAccount": false,
            "IsForLead": false,
            "IsForOportunity": false,
            "IsSelected": false,
            "MainId": 146,
            "Name": "Anguilla"
          },
          {
            "AllCustomField": null,
            "FieldName": null,
            "FieldNameMaster": null,
            "ID": 6,
            "IsExisting": false,
            "IsForAccount": false,
            "IsForLead": false,
            "IsForOportunity": false,
            "IsSelected": false,
            "MainId": 147,
            "Name": "Antigua & Barbuda"
          },
          {
            "AllCustomField": null,
            "FieldName": null,
            "FieldNameMaster": null,
            "ID": 7,
            "IsExisting": false,
            "IsForAccount": false,
            "IsForLead": false,
            "IsForOportunity": false,
            "IsSelected": false,
            "MainId": 148,
            "Name": "Argentina"
          },
          {
            "AllCustomField": null,
            "FieldName": null,
            "FieldNameMaster": null,
            "ID": 8,
            "IsExisting": false,
            "IsForAccount": false,
            "IsForLead": false,
            "IsForOportunity": false,
            "IsSelected": false,
            "MainId": 149,
            "Name": "Armenia"
          },
          {
            "AllCustomField": null,
            "FieldName": null,
            "FieldNameMaster": null,
            "ID": 9,
            "IsExisting": false,
            "IsForAccount": false,
            "IsForLead": false,
            "IsForOportunity": false,
            "IsSelected": false,
            "MainId": 150,
            "Name": "Aruba"
          },
          {
            "AllCustomField": null,
            "FieldName": null,
            "FieldNameMaster": null,
            "ID": 11,
            "IsExisting": false,
            "IsForAccount": false,
            "IsForLead": false,
            "IsForOportunity": false,
            "IsSelected": false,
            "MainId": 152,
            "Name": "Austria"
          },
          {
            "AllCustomField": null,
            "FieldName": null,
            "FieldNameMaster": null,
            "ID": 12,
            "IsExisting": false,
            "IsForAccount": false,
            "IsForLead": false,
            "IsForOportunity": false,
            "IsSelected": false,
            "MainId": 153,
            "Name": "Azerbaijan"
          },
          {
            "AllCustomField": null,
            "FieldName": null,
            "FieldNameMaster": null,
            "ID": 13,
            "IsExisting": false,
            "IsForAccount": false,
            "IsForLead": false,
            "IsForOportunity": false,
            "IsSelected": false,
            "MainId": 154,
            "Name": "Bahamas"
          },
          {
            "AllCustomField": null,
            "FieldName": null,
            "FieldNameMaster": null,
            "ID": 14,
            "IsExisting": false,
            "IsForAccount": false,
            "IsForLead": false,
            "IsForOportunity": false,
            "IsSelected": false,
            "MainId": 155,
            "Name": "Bahrain"
          },
          {
            "AllCustomField": null,
            "FieldName": null,
            "FieldNameMaster": null,
            "ID": 15,
            "IsExisting": false,
            "IsForAccount": false,
            "IsForLead": false,
            "IsForOportunity": false,
            "IsSelected": false,
            "MainId": 156,
            "Name": "Bangladesh"
          },
          {
            "AllCustomField": null,
            "FieldName": null,
            "FieldNameMaster": null,
            "ID": 16,
            "IsExisting": false,
            "IsForAccount": false,
            "IsForLead": false,
            "IsForOportunity": false,
            "IsSelected": false,
            "MainId": 157,
            "Name": "Barbados"
          },
          {
            "AllCustomField": null,
            "FieldName": null,
            "FieldNameMaster": null,
            "ID": 17,
            "IsExisting": false,
            "IsForAccount": false,
            "IsForLead": false,
            "IsForOportunity": false,
            "IsSelected": false,
            "MainId": 158,
            "Name": "Barbuda"
          },
          {
            "AllCustomField": null,
            "FieldName": null,
            "FieldNameMaster": null,
            "ID": 18,
            "IsExisting": false,
            "IsForAccount": false,
            "IsForLead": false,
            "IsForOportunity": false,
            "IsSelected": false,
            "MainId": 159,
            "Name": "Belarus"
          },
          {
            "AllCustomField": null,
            "FieldName": null,
            "FieldNameMaster": null,
            "ID": 19,
            "IsExisting": false,
            "IsForAccount": false,
            "IsForLead": false,
            "IsForOportunity": false,
            "IsSelected": false,
            "MainId": 160,
            "Name": "Belgium"
          },
          {
            "AllCustomField": null,
            "FieldName": null,
            "FieldNameMaster": null,
            "ID": 20,
            "IsExisting": false,
            "IsForAccount": false,
            "IsForLead": false,
            "IsForOportunity": false,
            "IsSelected": false,
            "MainId": 161,
            "Name": "Belize"
          },
          {
            "AllCustomField": null,
            "FieldName": null,
            "FieldNameMaster": null,
            "ID": 21,
            "IsExisting": false,
            "IsForAccount": false,
            "IsForLead": false,
            "IsForOportunity": false,
            "IsSelected": false,
            "MainId": 162,
            "Name": "Benin"
          },
          {
            "AllCustomField": null,
            "FieldName": null,
            "FieldNameMaster": null,
            "ID": 22,
            "IsExisting": false,
            "IsForAccount": false,
            "IsForLead": false,
            "IsForOportunity": false,
            "IsSelected": false,
            "MainId": 163,
            "Name": "Bermuda"
          },
          {
            "AllCustomField": null,
            "FieldName": null,
            "FieldNameMaster": null,
            "ID": 23,
            "IsExisting": false,
            "IsForAccount": false,
            "IsForLead": false,
            "IsForOportunity": false,
            "IsSelected": false,
            "MainId": 164,
            "Name": "Bhutan"
          },
          {
            "AllCustomField": null,
            "FieldName": null,
            "FieldNameMaster": null,
            "ID": 25,
            "IsExisting": false,
            "IsForAccount": false,
            "IsForLead": false,
            "IsForOportunity": false,
            "IsSelected": false,
            "MainId": 166,
            "Name": "Bosnia-Herzegovina"
          },
          {
            "AllCustomField": null,
            "FieldName": null,
            "FieldNameMaster": null,
            "ID": 26,
            "IsExisting": false,
            "IsForAccount": false,
            "IsForLead": false,
            "IsForOportunity": false,
            "IsSelected": false,
            "MainId": 167,
            "Name": "Botswana"
          },
          {
            "AllCustomField": null,
            "FieldName": null,
            "FieldNameMaster": null,
            "ID": 27,
            "IsExisting": false,
            "IsForAccount": false,
            "IsForLead": false,
            "IsForOportunity": false,
            "IsSelected": false,
            "MainId": 168,
            "Name": "Brazil"
          },
          {
            "AllCustomField": null,
            "FieldName": null,
            "FieldNameMaster": null,
            "ID": 28,
            "IsExisting": false,
            "IsForAccount": false,
            "IsForLead": false,
            "IsForOportunity": false,
            "IsSelected": false,
            "MainId": 169,
            "Name": "British Virgin"
          },
          {
            "AllCustomField": null,
            "FieldName": null,
            "FieldNameMaster": null,
            "ID": 29,
            "IsExisting": false,
            "IsForAccount": false,
            "IsForLead": false,
            "IsForOportunity": false,
            "IsSelected": false,
            "MainId": 170,
            "Name": "Brunei"
          },
          {
            "AllCustomField": null,
            "FieldName": null,
            "FieldNameMaster": null,
            "ID": 30,
            "IsExisting": false,
            "IsForAccount": false,
            "IsForLead": false,
            "IsForOportunity": false,
            "IsSelected": false,
            "MainId": 171,
            "Name": "Bulgaria"
          },
          {
            "AllCustomField": null,
            "FieldName": null,
            "FieldNameMaster": null,
            "ID": 31,
            "IsExisting": false,
            "IsForAccount": false,
            "IsForLead": false,
            "IsForOportunity": false,
            "IsSelected": false,
            "MainId": 172,
            "Name": "Burkina Faso"
          },
          {
            "AllCustomField": null,
            "FieldName": null,
            "FieldNameMaster": null,
            "ID": 32,
            "IsExisting": false,
            "IsForAccount": false,
            "IsForLead": false,
            "IsForOportunity": false,
            "IsSelected": false,
            "MainId": 173,
            "Name": "Burundi"
          },
          {
            "AllCustomField": null,
            "FieldName": null,
            "FieldNameMaster": null,
            "ID": 33,
            "IsExisting": false,
            "IsForAccount": false,
            "IsForLead": false,
            "IsForOportunity": false,
            "IsSelected": false,
            "MainId": 174,
            "Name": "Cambodia"
          },
          {
            "AllCustomField": null,
            "FieldName": null,
            "FieldNameMaster": null,
            "ID": 34,
            "IsExisting": false,
            "IsForAccount": false,
            "IsForLead": false,
            "IsForOportunity": false,
            "IsSelected": false,
            "MainId": 175,
            "Name": "Cameroon"
          },
          {
            "AllCustomField": null,
            "FieldName": null,
            "FieldNameMaster": null,
            "ID": 35,
            "IsExisting": false,
            "IsForAccount": false,
            "IsForLead": false,
            "IsForOportunity": false,
            "IsSelected": false,
            "MainId": 176,
            "Name": "Canada"
          },
          {
            "AllCustomField": null,
            "FieldName": null,
            "FieldNameMaster": null,
            "ID": 36,
            "IsExisting": false,
            "IsForAccount": false,
            "IsForLead": false,
            "IsForOportunity": false,
            "IsSelected": false,
            "MainId": 177,
            "Name": "Canary Islands"
          },
          {
            "AllCustomField": null,
            "FieldName": null,
            "FieldNameMaster": null,
            "ID": 37,
            "IsExisting": false,
            "IsForAccount": false,
            "IsForLead": false,
            "IsForOportunity": false,
            "IsSelected": false,
            "MainId": 178,
            "Name": "Cape Verde"
          },
          {
            "AllCustomField": null,
            "FieldName": null,
            "FieldNameMaster": null,
            "ID": 38,
            "IsExisting": false,
            "IsForAccount": false,
            "IsForLead": false,
            "IsForOportunity": false,
            "IsSelected": false,
            "MainId": 179,
            "Name": "Cayman Islands"
          },
          {
            "AllCustomField": null,
            "FieldName": null,
            "FieldNameMaster": null,
            "ID": 39,
            "IsExisting": false,
            "IsForAccount": false,
            "IsForLead": false,
            "IsForOportunity": false,
            "IsSelected": false,
            "MainId": 180,
            "Name": "Central African"
          },
          {
            "AllCustomField": null,
            "FieldName": null,
            "FieldNameMaster": null,
            "ID": 40,
            "IsExisting": false,
            "IsForAccount": false,
            "IsForLead": false,
            "IsForOportunity": false,
            "IsSelected": false,
            "MainId": 181,
            "Name": "Chad"
          },
          {
            "AllCustomField": null,
            "FieldName": null,
            "FieldNameMaster": null,
            "ID": 41,
            "IsExisting": false,
            "IsForAccount": false,
            "IsForLead": false,
            "IsForOportunity": false,
            "IsSelected": false,
            "MainId": 182,
            "Name": "Chile"
          },
          {
            "AllCustomField": null,
            "FieldName": null,
            "FieldNameMaster": null,
            "ID": 42,
            "IsExisting": false,
            "IsForAccount": false,
            "IsForLead": false,
            "IsForOportunity": false,
            "IsSelected": false,
            "MainId": 183,
            "Name": "China"
          },
          {
            "AllCustomField": null,
            "FieldName": null,
            "FieldNameMaster": null,
            "ID": 43,
            "IsExisting": false,
            "IsForAccount": false,
            "IsForLead": false,
            "IsForOportunity": false,
            "IsSelected": false,
            "MainId": 184,
            "Name": "Colombia"
          },
          {
            "AllCustomField": null,
            "FieldName": null,
            "FieldNameMaster": null,
            "ID": 44,
            "IsExisting": false,
            "IsForAccount": false,
            "IsForLead": false,
            "IsForOportunity": false,
            "IsSelected": false,
            "MainId": 185,
            "Name": "Comoros"
          },
          {
            "AllCustomField": null,
            "FieldName": null,
            "FieldNameMaster": null,
            "ID": 45,
            "IsExisting": false,
            "IsForAccount": false,
            "IsForLead": false,
            "IsForOportunity": false,
            "IsSelected": false,
            "MainId": 186,
            "Name": "Congo"
          },
          {
            "AllCustomField": null,
            "FieldName": null,
            "FieldNameMaster": null,
            "ID": 46,
            "IsExisting": false,
            "IsForAccount": false,
            "IsForLead": false,
            "IsForOportunity": false,
            "IsSelected": false,
            "MainId": 187,
            "Name": "Congo, Democratic"
          },
          {
            "AllCustomField": null,
            "FieldName": null,
            "FieldNameMaster": null,
            "ID": 47,
            "IsExisting": false,
            "IsForAccount": false,
            "IsForLead": false,
            "IsForOportunity": false,
            "IsSelected": false,
            "MainId": 188,
            "Name": "Cook Islands"
          },
          {
            "AllCustomField": null,
            "FieldName": null,
            "FieldNameMaster": null,
            "ID": 48,
            "IsExisting": false,
            "IsForAccount": false,
            "IsForLead": false,
            "IsForOportunity": false,
            "IsSelected": false,
            "MainId": 189,
            "Name": "Costa Rica"
          },
          {
            "AllCustomField": null,
            "FieldName": null,
            "FieldNameMaster": null,
            "ID": 49,
            "IsExisting": false,
            "IsForAccount": false,
            "IsForLead": false,
            "IsForOportunity": false,
            "IsSelected": false,
            "MainId": 190,
            "Name": "Croatia"
          },
          {
            "AllCustomField": null,
            "FieldName": null,
            "FieldNameMaster": null,
            "ID": 50,
            "IsExisting": false,
            "IsForAccount": false,
            "IsForLead": false,
            "IsForOportunity": false,
            "IsSelected": false,
            "MainId": 191,
            "Name": "Cuba"
          },
          {
            "AllCustomField": null,
            "FieldName": null,
            "FieldNameMaster": null,
            "ID": 51,
            "IsExisting": false,
            "IsForAccount": false,
            "IsForLead": false,
            "IsForOportunity": false,
            "IsSelected": false,
            "MainId": 192,
            "Name": "Curacao"
          },
          {
            "AllCustomField": null,
            "FieldName": null,
            "FieldNameMaster": null,
            "ID": 52,
            "IsExisting": false,
            "IsForAccount": false,
            "IsForLead": false,
            "IsForOportunity": false,
            "IsSelected": false,
            "MainId": 193,
            "Name": "Cyprus"
          },
          {
            "AllCustomField": null,
            "FieldName": null,
            "FieldNameMaster": null,
            "ID": 53,
            "IsExisting": false,
            "IsForAccount": false,
            "IsForLead": false,
            "IsForOportunity": false,
            "IsSelected": false,
            "MainId": 194,
            "Name": "Czech Republic"
          },
          {
            "AllCustomField": null,
            "FieldName": null,
            "FieldNameMaster": null,
            "ID": 54,
            "IsExisting": false,
            "IsForAccount": false,
            "IsForLead": false,
            "IsForOportunity": false,
            "IsSelected": false,
            "MainId": 195,
            "Name": "Denmark"
          },
          {
            "AllCustomField": null,
            "FieldName": null,
            "FieldNameMaster": null,
            "ID": 55,
            "IsExisting": false,
            "IsForAccount": false,
            "IsForLead": false,
            "IsForOportunity": false,
            "IsSelected": false,
            "MainId": 196,
            "Name": "Djibouti"
          },
          {
            "AllCustomField": null,
            "FieldName": null,
            "FieldNameMaster": null,
            "ID": 56,
            "IsExisting": false,
            "IsForAccount": false,
            "IsForLead": false,
            "IsForOportunity": false,
            "IsSelected": false,
            "MainId": 197,
            "Name": "Dominica"
          },
          {
            "AllCustomField": null,
            "FieldName": null,
            "FieldNameMaster": null,
            "ID": 57,
            "IsExisting": false,
            "IsForAccount": false,
            "IsForLead": false,
            "IsForOportunity": false,
            "IsSelected": false,
            "MainId": 198,
            "Name": "Dominican"
          },
          {
            "AllCustomField": null,
            "FieldName": null,
            "FieldNameMaster": null,
            "ID": 58,
            "IsExisting": false,
            "IsForAccount": false,
            "IsForLead": false,
            "IsForOportunity": false,
            "IsSelected": false,
            "MainId": 199,
            "Name": "East Timor"
          },
          {
            "AllCustomField": null,
            "FieldName": null,
            "FieldNameMaster": null,
            "ID": 59,
            "IsExisting": false,
            "IsForAccount": false,
            "IsForLead": false,
            "IsForOportunity": false,
            "IsSelected": false,
            "MainId": 200,
            "Name": "Ecuador"
          },
          {
            "AllCustomField": null,
            "FieldName": null,
            "FieldNameMaster": null,
            "ID": 60,
            "IsExisting": false,
            "IsForAccount": false,
            "IsForLead": false,
            "IsForOportunity": false,
            "IsSelected": false,
            "MainId": 201,
            "Name": "Egypt"
          },
          {
            "AllCustomField": null,
            "FieldName": null,
            "FieldNameMaster": null,
            "ID": 61,
            "IsExisting": false,
            "IsForAccount": false,
            "IsForLead": false,
            "IsForOportunity": false,
            "IsSelected": false,
            "MainId": 202,
            "Name": "El Salvador"
          },
          {
            "AllCustomField": null,
            "FieldName": null,
            "FieldNameMaster": null,
            "ID": 62,
            "IsExisting": false,
            "IsForAccount": false,
            "IsForLead": false,
            "IsForOportunity": false,
            "IsSelected": false,
            "MainId": 203,
            "Name": "Equatorial Guinea"
          },
          {
            "AllCustomField": null,
            "FieldName": null,
            "FieldNameMaster": null,
            "ID": 63,
            "IsExisting": false,
            "IsForAccount": false,
            "IsForLead": false,
            "IsForOportunity": false,
            "IsSelected": false,
            "MainId": 204,
            "Name": "Estonia"
          },
          {
            "AllCustomField": null,
            "FieldName": null,
            "FieldNameMaster": null,
            "ID": 64,
            "IsExisting": false,
            "IsForAccount": false,
            "IsForLead": false,
            "IsForOportunity": false,
            "IsSelected": false,
            "MainId": 205,
            "Name": "Ethiopia"
          },
          {
            "AllCustomField": null,
            "FieldName": null,
            "FieldNameMaster": null,
            "ID": 65,
            "IsExisting": false,
            "IsForAccount": false,
            "IsForLead": false,
            "IsForOportunity": false,
            "IsSelected": false,
            "MainId": 206,
            "Name": "Falkland Islands"
          },
          {
            "AllCustomField": null,
            "FieldName": null,
            "FieldNameMaster": null,
            "ID": 66,
            "IsExisting": false,
            "IsForAccount": false,
            "IsForLead": false,
            "IsForOportunity": false,
            "IsSelected": false,
            "MainId": 207,
            "Name": "Faroe Islands"
          },
          {
            "AllCustomField": null,
            "FieldName": null,
            "FieldNameMaster": null,
            "ID": 67,
            "IsExisting": false,
            "IsForAccount": false,
            "IsForLead": false,
            "IsForOportunity": false,
            "IsSelected": false,
            "MainId": 208,
            "Name": "Fiji"
          },
          {
            "AllCustomField": null,
            "FieldName": null,
            "FieldNameMaster": null,
            "ID": 68,
            "IsExisting": false,
            "IsForAccount": false,
            "IsForLead": false,
            "IsForOportunity": false,
            "IsSelected": false,
            "MainId": 209,
            "Name": "Finland"
          },
          {
            "AllCustomField": null,
            "FieldName": null,
            "FieldNameMaster": null,
            "ID": 69,
            "IsExisting": false,
            "IsForAccount": false,
            "IsForLead": false,
            "IsForOportunity": false,
            "IsSelected": false,
            "MainId": 210,
            "Name": "France"
          },
          {
            "AllCustomField": null,
            "FieldName": null,
            "FieldNameMaster": null,
            "ID": 70,
            "IsExisting": false,
            "IsForAccount": false,
            "IsForLead": false,
            "IsForOportunity": false,
            "IsSelected": false,
            "MainId": 211,
            "Name": "French Guiana"
          },
          {
            "AllCustomField": null,
            "FieldName": null,
            "FieldNameMaster": null,
            "ID": 71,
            "IsExisting": false,
            "IsForAccount": false,
            "IsForLead": false,
            "IsForOportunity": false,
            "IsSelected": false,
            "MainId": 212,
            "Name": "French Polynesia"
          },
          {
            "AllCustomField": null,
            "FieldName": null,
            "FieldNameMaster": null,
            "ID": 72,
            "IsExisting": false,
            "IsForAccount": false,
            "IsForLead": false,
            "IsForOportunity": false,
            "IsSelected": false,
            "MainId": 213,
            "Name": "French West"
          },
          {
            "AllCustomField": null,
            "FieldName": null,
            "FieldNameMaster": null,
            "ID": 73,
            "IsExisting": false,
            "IsForAccount": false,
            "IsForLead": false,
            "IsForOportunity": false,
            "IsSelected": false,
            "MainId": 214,
            "Name": "Gabon"
          },
          {
            "AllCustomField": null,
            "FieldName": null,
            "FieldNameMaster": null,
            "ID": 74,
            "IsExisting": false,
            "IsForAccount": false,
            "IsForLead": false,
            "IsForOportunity": false,
            "IsSelected": false,
            "MainId": 215,
            "Name": "Gambia"
          },
          {
            "AllCustomField": null,
            "FieldName": null,
            "FieldNameMaster": null,
            "ID": 75,
            "IsExisting": false,
            "IsForAccount": false,
            "IsForLead": false,
            "IsForOportunity": false,
            "IsSelected": false,
            "MainId": 216,
            "Name": "Georgia"
          },
          {
            "AllCustomField": null,
            "FieldName": null,
            "FieldNameMaster": null,
            "ID": 76,
            "IsExisting": false,
            "IsForAccount": false,
            "IsForLead": false,
            "IsForOportunity": false,
            "IsSelected": false,
            "MainId": 217,
            "Name": "Germany"
          },
          {
            "AllCustomField": null,
            "FieldName": null,
            "FieldNameMaster": null,
            "ID": 77,
            "IsExisting": false,
            "IsForAccount": false,
            "IsForLead": false,
            "IsForOportunity": false,
            "IsSelected": false,
            "MainId": 218,
            "Name": "Ghana"
          },
          {
            "AllCustomField": null,
            "FieldName": null,
            "FieldNameMaster": null,
            "ID": 78,
            "IsExisting": false,
            "IsForAccount": false,
            "IsForLead": false,
            "IsForOportunity": false,
            "IsSelected": false,
            "MainId": 219,
            "Name": "Gibraltar"
          },
          {
            "AllCustomField": null,
            "FieldName": null,
            "FieldNameMaster": null,
            "ID": 79,
            "IsExisting": false,
            "IsForAccount": false,
            "IsForLead": false,
            "IsForOportunity": false,
            "IsSelected": false,
            "MainId": 220,
            "Name": "Greece"
          },
          {
            "AllCustomField": null,
            "FieldName": null,
            "FieldNameMaster": null,
            "ID": 80,
            "IsExisting": false,
            "IsForAccount": false,
            "IsForLead": false,
            "IsForOportunity": false,
            "IsSelected": false,
            "MainId": 221,
            "Name": "Greenland"
          },
          {
            "AllCustomField": null,
            "FieldName": null,
            "FieldNameMaster": null,
            "ID": 81,
            "IsExisting": false,
            "IsForAccount": false,
            "IsForLead": false,
            "IsForOportunity": false,
            "IsSelected": false,
            "MainId": 222,
            "Name": "Grenada"
          },
          {
            "AllCustomField": null,
            "FieldName": null,
            "FieldNameMaster": null,
            "ID": 82,
            "IsExisting": false,
            "IsForAccount": false,
            "IsForLead": false,
            "IsForOportunity": false,
            "IsSelected": false,
            "MainId": 223,
            "Name": "Guadeloupe"
          },
          {
            "AllCustomField": null,
            "FieldName": null,
            "FieldNameMaster": null,
            "ID": 84,
            "IsExisting": false,
            "IsForAccount": false,
            "IsForLead": false,
            "IsForOportunity": false,
            "IsSelected": false,
            "MainId": 225,
            "Name": "Guatemala"
          },
          {
            "AllCustomField": null,
            "FieldName": null,
            "FieldNameMaster": null,
            "ID": 85,
            "IsExisting": false,
            "IsForAccount": false,
            "IsForLead": false,
            "IsForOportunity": false,
            "IsSelected": false,
            "MainId": 226,
            "Name": "Guernsey"
          },
          {
            "AllCustomField": null,
            "FieldName": null,
            "FieldNameMaster": null,
            "ID": 86,
            "IsExisting": false,
            "IsForAccount": false,
            "IsForLead": false,
            "IsForOportunity": false,
            "IsSelected": false,
            "MainId": 227,
            "Name": "Guinea"
          },
          {
            "AllCustomField": null,
            "FieldName": null,
            "FieldNameMaster": null,
            "ID": 87,
            "IsExisting": false,
            "IsForAccount": false,
            "IsForLead": false,
            "IsForOportunity": false,
            "IsSelected": false,
            "MainId": 228,
            "Name": "Guyana"
          },
          {
            "AllCustomField": null,
            "FieldName": null,
            "FieldNameMaster": null,
            "ID": 88,
            "IsExisting": false,
            "IsForAccount": false,
            "IsForLead": false,
            "IsForOportunity": false,
            "IsSelected": false,
            "MainId": 229,
            "Name": "Haiti"
          },
          {
            "AllCustomField": null,
            "FieldName": null,
            "FieldNameMaster": null,
            "ID": 89,
            "IsExisting": false,
            "IsForAccount": false,
            "IsForLead": false,
            "IsForOportunity": false,
            "IsSelected": false,
            "MainId": 230,
            "Name": "Honduras"
          },
          {
            "AllCustomField": null,
            "FieldName": null,
            "FieldNameMaster": null,
            "ID": 90,
            "IsExisting": false,
            "IsForAccount": false,
            "IsForLead": false,
            "IsForOportunity": false,
            "IsSelected": false,
            "MainId": 231,
            "Name": "HongKong"
          },
          {
            "AllCustomField": null,
            "FieldName": null,
            "FieldNameMaster": null,
            "ID": 91,
            "IsExisting": false,
            "IsForAccount": false,
            "IsForLead": false,
            "IsForOportunity": false,
            "IsSelected": false,
            "MainId": 232,
            "Name": "Hungary"
          },
          {
            "AllCustomField": null,
            "FieldName": null,
            "FieldNameMaster": null,
            "ID": 92,
            "IsExisting": false,
            "IsForAccount": false,
            "IsForLead": false,
            "IsForOportunity": false,
            "IsSelected": false,
            "MainId": 233,
            "Name": "Iceland"
          },
          {
            "AllCustomField": null,
            "FieldName": null,
            "FieldNameMaster": null,
            "ID": 93,
            "IsExisting": false,
            "IsForAccount": false,
            "IsForLead": false,
            "IsForOportunity": false,
            "IsSelected": false,
            "MainId": 234,
            "Name": "India"
          },
          {
            "AllCustomField": null,
            "FieldName": null,
            "FieldNameMaster": null,
            "ID": 95,
            "IsExisting": false,
            "IsForAccount": false,
            "IsForLead": false,
            "IsForOportunity": false,
            "IsSelected": false,
            "MainId": 236,
            "Name": "Iran"
          },
          {
            "AllCustomField": null,
            "FieldName": null,
            "FieldNameMaster": null,
            "ID": 97,
            "IsExisting": false,
            "IsForAccount": false,
            "IsForLead": false,
            "IsForOportunity": false,
            "IsSelected": false,
            "MainId": 238,
            "Name": "Ireland"
          },
          {
            "AllCustomField": null,
            "FieldName": null,
            "FieldNameMaster": null,
            "ID": 98,
            "IsExisting": false,
            "IsForAccount": false,
            "IsForLead": false,
            "IsForOportunity": false,
            "IsSelected": false,
            "MainId": 239,
            "Name": "Isle of Man"
          },
          {
            "AllCustomField": null,
            "FieldName": null,
            "FieldNameMaster": null,
            "ID": 99,
            "IsExisting": false,
            "IsForAccount": false,
            "IsForLead": false,
            "IsForOportunity": false,
            "IsSelected": false,
            "MainId": 240,
            "Name": "Israel"
          },
          {
            "AllCustomField": null,
            "FieldName": null,
            "FieldNameMaster": null,
            "ID": 100,
            "IsExisting": false,
            "IsForAccount": false,
            "IsForLead": false,
            "IsForOportunity": false,
            "IsSelected": false,
            "MainId": 241,
            "Name": "Italy"
          },
          {
            "AllCustomField": null,
            "FieldName": null,
            "FieldNameMaster": null,
            "ID": 101,
            "IsExisting": false,
            "IsForAccount": false,
            "IsForLead": false,
            "IsForOportunity": false,
            "IsSelected": false,
            "MainId": 242,
            "Name": "Ivory Coast"
          },
          {
            "AllCustomField": null,
            "FieldName": null,
            "FieldNameMaster": null,
            "ID": 102,
            "IsExisting": false,
            "IsForAccount": false,
            "IsForLead": false,
            "IsForOportunity": false,
            "IsSelected": false,
            "MainId": 243,
            "Name": "Jamaica"
          },
          {
            "AllCustomField": null,
            "FieldName": null,
            "FieldNameMaster": null,
            "ID": 103,
            "IsExisting": false,
            "IsForAccount": false,
            "IsForLead": false,
            "IsForOportunity": false,
            "IsSelected": false,
            "MainId": 244,
            "Name": "Japan"
          },
          {
            "AllCustomField": null,
            "FieldName": null,
            "FieldNameMaster": null,
            "ID": 104,
            "IsExisting": false,
            "IsForAccount": false,
            "IsForLead": false,
            "IsForOportunity": false,
            "IsSelected": false,
            "MainId": 245,
            "Name": "Jersey"
          },
          {
            "AllCustomField": null,
            "FieldName": null,
            "FieldNameMaster": null,
            "ID": 105,
            "IsExisting": false,
            "IsForAccount": false,
            "IsForLead": false,
            "IsForOportunity": false,
            "IsSelected": false,
            "MainId": 246,
            "Name": "Jordan"
          },
          {
            "AllCustomField": null,
            "FieldName": null,
            "FieldNameMaster": null,
            "ID": 106,
            "IsExisting": false,
            "IsForAccount": false,
            "IsForLead": false,
            "IsForOportunity": false,
            "IsSelected": false,
            "MainId": 247,
            "Name": "Kazakhstan"
          },
          {
            "AllCustomField": null,
            "FieldName": null,
            "FieldNameMaster": null,
            "ID": 107,
            "IsExisting": false,
            "IsForAccount": false,
            "IsForLead": false,
            "IsForOportunity": false,
            "IsSelected": false,
            "MainId": 248,
            "Name": "Kenya"
          },
          {
            "AllCustomField": null,
            "FieldName": null,
            "FieldNameMaster": null,
            "ID": 108,
            "IsExisting": false,
            "IsForAccount": false,
            "IsForLead": false,
            "IsForOportunity": false,
            "IsSelected": false,
            "MainId": 249,
            "Name": "Korea (South)"
          },
          {
            "AllCustomField": null,
            "FieldName": null,
            "FieldNameMaster": null,
            "ID": 109,
            "IsExisting": false,
            "IsForAccount": false,
            "IsForLead": false,
            "IsForOportunity": false,
            "IsSelected": false,
            "MainId": 250,
            "Name": "Kuwait"
          },
          {
            "AllCustomField": null,
            "FieldName": null,
            "FieldNameMaster": null,
            "ID": 110,
            "IsExisting": false,
            "IsForAccount": false,
            "IsForLead": false,
            "IsForOportunity": false,
            "IsSelected": false,
            "MainId": 251,
            "Name": "Kyrgyzstan"
          },
          {
            "AllCustomField": null,
            "FieldName": null,
            "FieldNameMaster": null,
            "ID": 111,
            "IsExisting": false,
            "IsForAccount": false,
            "IsForLead": false,
            "IsForOportunity": false,
            "IsSelected": false,
            "MainId": 252,
            "Name": "Lao"
          },
          {
            "AllCustomField": null,
            "FieldName": null,
            "FieldNameMaster": null,
            "ID": 112,
            "IsExisting": false,
            "IsForAccount": false,
            "IsForLead": false,
            "IsForOportunity": false,
            "IsSelected": false,
            "MainId": 253,
            "Name": "Latvia"
          },
          {
            "AllCustomField": null,
            "FieldName": null,
            "FieldNameMaster": null,
            "ID": 113,
            "IsExisting": false,
            "IsForAccount": false,
            "IsForLead": false,
            "IsForOportunity": false,
            "IsSelected": false,
            "MainId": 254,
            "Name": "Lebanon"
          },
          {
            "AllCustomField": null,
            "FieldName": null,
            "FieldNameMaster": null,
            "ID": 114,
            "IsExisting": false,
            "IsForAccount": false,
            "IsForLead": false,
            "IsForOportunity": false,
            "IsSelected": false,
            "MainId": 255,
            "Name": "Lesotho"
          },
          {
            "AllCustomField": null,
            "FieldName": null,
            "FieldNameMaster": null,
            "ID": 115,
            "IsExisting": false,
            "IsForAccount": false,
            "IsForLead": false,
            "IsForOportunity": false,
            "IsSelected": false,
            "MainId": 256,
            "Name": "Liberia"
          },
          {
            "AllCustomField": null,
            "FieldName": null,
            "FieldNameMaster": null,
            "ID": 116,
            "IsExisting": false,
            "IsForAccount": false,
            "IsForLead": false,
            "IsForOportunity": false,
            "IsSelected": false,
            "MainId": 257,
            "Name": "Libya"
          },
          {
            "AllCustomField": null,
            "FieldName": null,
            "FieldNameMaster": null,
            "ID": 117,
            "IsExisting": false,
            "IsForAccount": false,
            "IsForLead": false,
            "IsForOportunity": false,
            "IsSelected": false,
            "MainId": 258,
            "Name": "Liechtenstein"
          },
          {
            "AllCustomField": null,
            "FieldName": null,
            "FieldNameMaster": null,
            "ID": 118,
            "IsExisting": false,
            "IsForAccount": false,
            "IsForLead": false,
            "IsForOportunity": false,
            "IsSelected": false,
            "MainId": 259,
            "Name": "Lithuania"
          },
          {
            "AllCustomField": null,
            "FieldName": null,
            "FieldNameMaster": null,
            "ID": 119,
            "IsExisting": false,
            "IsForAccount": false,
            "IsForLead": false,
            "IsForOportunity": false,
            "IsSelected": false,
            "MainId": 260,
            "Name": "Luxembourg"
          },
          {
            "AllCustomField": null,
            "FieldName": null,
            "FieldNameMaster": null,
            "ID": 120,
            "IsExisting": false,
            "IsForAccount": false,
            "IsForLead": false,
            "IsForOportunity": false,
            "IsSelected": false,
            "MainId": 261,
            "Name": "Macau"
          },
          {
            "AllCustomField": null,
            "FieldName": null,
            "FieldNameMaster": null,
            "ID": 121,
            "IsExisting": false,
            "IsForAccount": false,
            "IsForLead": false,
            "IsForOportunity": false,
            "IsSelected": false,
            "MainId": 262,
            "Name": "Macedonia"
          },
          {
            "AllCustomField": null,
            "FieldName": null,
            "FieldNameMaster": null,
            "ID": 122,
            "IsExisting": false,
            "IsForAccount": false,
            "IsForLead": false,
            "IsForOportunity": false,
            "IsSelected": false,
            "MainId": 263,
            "Name": "Madagascar"
          },
          {
            "AllCustomField": null,
            "FieldName": null,
            "FieldNameMaster": null,
            "ID": 123,
            "IsExisting": false,
            "IsForAccount": false,
            "IsForLead": false,
            "IsForOportunity": false,
            "IsSelected": false,
            "MainId": 264,
            "Name": "Malawi"
          },
          {
            "AllCustomField": null,
            "FieldName": null,
            "FieldNameMaster": null,
            "ID": 124,
            "IsExisting": false,
            "IsForAccount": false,
            "IsForLead": false,
            "IsForOportunity": false,
            "IsSelected": false,
            "MainId": 265,
            "Name": "Malaysia"
          },
          {
            "AllCustomField": null,
            "FieldName": null,
            "FieldNameMaster": null,
            "ID": 125,
            "IsExisting": false,
            "IsForAccount": false,
            "IsForLead": false,
            "IsForOportunity": false,
            "IsSelected": false,
            "MainId": 266,
            "Name": "Maldives"
          },
          {
            "AllCustomField": null,
            "FieldName": null,
            "FieldNameMaster": null,
            "ID": 126,
            "IsExisting": false,
            "IsForAccount": false,
            "IsForLead": false,
            "IsForOportunity": false,
            "IsSelected": false,
            "MainId": 267,
            "Name": "Mali"
          },
          {
            "AllCustomField": null,
            "FieldName": null,
            "FieldNameMaster": null,
            "ID": 127,
            "IsExisting": false,
            "IsForAccount": false,
            "IsForLead": false,
            "IsForOportunity": false,
            "IsSelected": false,
            "MainId": 268,
            "Name": "Malta"
          },
          {
            "AllCustomField": null,
            "FieldName": null,
            "FieldNameMaster": null,
            "ID": 128,
            "IsExisting": false,
            "IsForAccount": false,
            "IsForLead": false,
            "IsForOportunity": false,
            "IsSelected": false,
            "MainId": 269,
            "Name": "Martinique"
          },
          {
            "AllCustomField": null,
            "FieldName": null,
            "FieldNameMaster": null,
            "ID": 129,
            "IsExisting": false,
            "IsForAccount": false,
            "IsForLead": false,
            "IsForOportunity": false,
            "IsSelected": false,
            "MainId": 270,
            "Name": "Mauritania"
          },
          {
            "AllCustomField": null,
            "FieldName": null,
            "FieldNameMaster": null,
            "ID": 130,
            "IsExisting": false,
            "IsForAccount": false,
            "IsForLead": false,
            "IsForOportunity": false,
            "IsSelected": false,
            "MainId": 271,
            "Name": "Mauritius"
          },
          {
            "AllCustomField": null,
            "FieldName": null,
            "FieldNameMaster": null,
            "ID": 131,
            "IsExisting": false,
            "IsForAccount": false,
            "IsForLead": false,
            "IsForOportunity": false,
            "IsSelected": false,
            "MainId": 272,
            "Name": "Mayotte Island"
          },
          {
            "AllCustomField": null,
            "FieldName": null,
            "FieldNameMaster": null,
            "ID": 132,
            "IsExisting": false,
            "IsForAccount": false,
            "IsForLead": false,
            "IsForOportunity": false,
            "IsSelected": false,
            "MainId": 273,
            "Name": "Mexico"
          },
          {
            "AllCustomField": null,
            "FieldName": null,
            "FieldNameMaster": null,
            "ID": 133,
            "IsExisting": false,
            "IsForAccount": false,
            "IsForLead": false,
            "IsForOportunity": false,
            "IsSelected": false,
            "MainId": 274,
            "Name": "Moldova"
          },
          {
            "AllCustomField": null,
            "FieldName": null,
            "FieldNameMaster": null,
            "ID": 134,
            "IsExisting": false,
            "IsForAccount": false,
            "IsForLead": false,
            "IsForOportunity": false,
            "IsSelected": false,
            "MainId": 275,
            "Name": "Monaco (Kosovo)"
          },
          {
            "AllCustomField": null,
            "FieldName": null,
            "FieldNameMaster": null,
            "ID": 135,
            "IsExisting": false,
            "IsForAccount": false,
            "IsForLead": false,
            "IsForOportunity": false,
            "IsSelected": false,
            "MainId": 276,
            "Name": "Mongolia"
          },
          {
            "AllCustomField": null,
            "FieldName": null,
            "FieldNameMaster": null,
            "ID": 136,
            "IsExisting": false,
            "IsForAccount": false,
            "IsForLead": false,
            "IsForOportunity": false,
            "IsSelected": false,
            "MainId": 277,
            "Name": "Montenegro"
          },
          {
            "AllCustomField": null,
            "FieldName": null,
            "FieldNameMaster": null,
            "ID": 137,
            "IsExisting": false,
            "IsForAccount": false,
            "IsForLead": false,
            "IsForOportunity": false,
            "IsSelected": false,
            "MainId": 278,
            "Name": "Montserrat"
          },
          {
            "AllCustomField": null,
            "FieldName": null,
            "FieldNameMaster": null,
            "ID": 138,
            "IsExisting": false,
            "IsForAccount": false,
            "IsForLead": false,
            "IsForOportunity": false,
            "IsSelected": false,
            "MainId": 279,
            "Name": "Morocco"
          },
          {
            "AllCustomField": null,
            "FieldName": null,
            "FieldNameMaster": null,
            "ID": 139,
            "IsExisting": false,
            "IsForAccount": false,
            "IsForLead": false,
            "IsForOportunity": false,
            "IsSelected": false,
            "MainId": 280,
            "Name": "Mozambique"
          },
          {
            "AllCustomField": null,
            "FieldName": null,
            "FieldNameMaster": null,
            "ID": 140,
            "IsExisting": false,
            "IsForAccount": false,
            "IsForLead": false,
            "IsForOportunity": false,
            "IsSelected": false,
            "MainId": 281,
            "Name": "Myanmar"
          },
          {
            "AllCustomField": null,
            "FieldName": null,
            "FieldNameMaster": null,
            "ID": 141,
            "IsExisting": false,
            "IsForAccount": false,
            "IsForLead": false,
            "IsForOportunity": false,
            "IsSelected": false,
            "MainId": 282,
            "Name": "Namibia"
          },
          {
            "AllCustomField": null,
            "FieldName": null,
            "FieldNameMaster": null,
            "ID": 142,
            "IsExisting": false,
            "IsForAccount": false,
            "IsForLead": false,
            "IsForOportunity": false,
            "IsSelected": false,
            "MainId": 283,
            "Name": "Nepal"
          },
          {
            "AllCustomField": null,
            "FieldName": null,
            "FieldNameMaster": null,
            "ID": 143,
            "IsExisting": false,
            "IsForAccount": false,
            "IsForLead": false,
            "IsForOportunity": false,
            "IsSelected": false,
            "MainId": 284,
            "Name": "Netherlands"
          },
          {
            "AllCustomField": null,
            "FieldName": null,
            "FieldNameMaster": null,
            "ID": 144,
            "IsExisting": false,
            "IsForAccount": false,
            "IsForLead": false,
            "IsForOportunity": false,
            "IsSelected": false,
            "MainId": 285,
            "Name": "New Caledonia"
          },
          {
            "AllCustomField": null,
            "FieldName": null,
            "FieldNameMaster": null,
            "ID": 145,
            "IsExisting": false,
            "IsForAccount": false,
            "IsForLead": false,
            "IsForOportunity": false,
            "IsSelected": false,
            "MainId": 286,
            "Name": "New Zealand"
          },
          {
            "AllCustomField": null,
            "FieldName": null,
            "FieldNameMaster": null,
            "ID": 146,
            "IsExisting": false,
            "IsForAccount": false,
            "IsForLead": false,
            "IsForOportunity": false,
            "IsSelected": false,
            "MainId": 287,
            "Name": "Nicaragua"
          },
          {
            "AllCustomField": null,
            "FieldName": null,
            "FieldNameMaster": null,
            "ID": 147,
            "IsExisting": false,
            "IsForAccount": false,
            "IsForLead": false,
            "IsForOportunity": false,
            "IsSelected": false,
            "MainId": 288,
            "Name": "Niger"
          },
          {
            "AllCustomField": null,
            "FieldName": null,
            "FieldNameMaster": null,
            "ID": 148,
            "IsExisting": false,
            "IsForAccount": false,
            "IsForLead": false,
            "IsForOportunity": false,
            "IsSelected": false,
            "MainId": 289,
            "Name": "Nigeria"
          },
          {
            "AllCustomField": null,
            "FieldName": null,
            "FieldNameMaster": null,
            "ID": 149,
            "IsExisting": false,
            "IsForAccount": false,
            "IsForLead": false,
            "IsForOportunity": false,
            "IsSelected": false,
            "MainId": 290,
            "Name": "Norway"
          },
          {
            "AllCustomField": null,
            "FieldName": null,
            "FieldNameMaster": null,
            "ID": 150,
            "IsExisting": false,
            "IsForAccount": false,
            "IsForLead": false,
            "IsForOportunity": false,
            "IsSelected": false,
            "MainId": 291,
            "Name": "Oman"
          },
          {
            "AllCustomField": null,
            "FieldName": null,
            "FieldNameMaster": null,
            "ID": 151,
            "IsExisting": false,
            "IsForAccount": false,
            "IsForLead": false,
            "IsForOportunity": false,
            "IsSelected": false,
            "MainId": 292,
            "Name": "Pakistan"
          },
          {
            "AllCustomField": null,
            "FieldName": null,
            "FieldNameMaster": null,
            "ID": 152,
            "IsExisting": false,
            "IsForAccount": false,
            "IsForLead": false,
            "IsForOportunity": false,
            "IsSelected": false,
            "MainId": 293,
            "Name": "Palestine"
          },
          {
            "AllCustomField": null,
            "FieldName": null,
            "FieldNameMaster": null,
            "ID": 153,
            "IsExisting": false,
            "IsForAccount": false,
            "IsForLead": false,
            "IsForOportunity": false,
            "IsSelected": false,
            "MainId": 294,
            "Name": "Panama"
          },
          {
            "AllCustomField": null,
            "FieldName": null,
            "FieldNameMaster": null,
            "ID": 154,
            "IsExisting": false,
            "IsForAccount": false,
            "IsForLead": false,
            "IsForOportunity": false,
            "IsSelected": false,
            "MainId": 295,
            "Name": "Papua New Guinea"
          },
          {
            "AllCustomField": null,
            "FieldName": null,
            "FieldNameMaster": null,
            "ID": 155,
            "IsExisting": false,
            "IsForAccount": false,
            "IsForLead": false,
            "IsForOportunity": false,
            "IsSelected": false,
            "MainId": 296,
            "Name": "Paraguay"
          },
          {
            "AllCustomField": null,
            "FieldName": null,
            "FieldNameMaster": null,
            "ID": 156,
            "IsExisting": false,
            "IsForAccount": false,
            "IsForLead": false,
            "IsForOportunity": false,
            "IsSelected": false,
            "MainId": 297,
            "Name": "Peru"
          },
          {
            "AllCustomField": null,
            "FieldName": null,
            "FieldNameMaster": null,
            "ID": 157,
            "IsExisting": false,
            "IsForAccount": false,
            "IsForLead": false,
            "IsForOportunity": false,
            "IsSelected": false,
            "MainId": 298,
            "Name": "Philippines"
          },
          {
            "AllCustomField": null,
            "FieldName": null,
            "FieldNameMaster": null,
            "ID": 158,
            "IsExisting": false,
            "IsForAccount": false,
            "IsForLead": false,
            "IsForOportunity": false,
            "IsSelected": false,
            "MainId": 299,
            "Name": "Poland"
          },
          {
            "AllCustomField": null,
            "FieldName": null,
            "FieldNameMaster": null,
            "ID": 159,
            "IsExisting": false,
            "IsForAccount": false,
            "IsForLead": false,
            "IsForOportunity": false,
            "IsSelected": false,
            "MainId": 300,
            "Name": "Portugal"
          },
          {
            "AllCustomField": null,
            "FieldName": null,
            "FieldNameMaster": null,
            "ID": 160,
            "IsExisting": false,
            "IsForAccount": false,
            "IsForLead": false,
            "IsForOportunity": false,
            "IsSelected": false,
            "MainId": 301,
            "Name": "Puerto Rico"
          },
          {
            "AllCustomField": null,
            "FieldName": null,
            "FieldNameMaster": null,
            "ID": 161,
            "IsExisting": false,
            "IsForAccount": false,
            "IsForLead": false,
            "IsForOportunity": false,
            "IsSelected": false,
            "MainId": 302,
            "Name": "Qatar"
          },
          {
            "AllCustomField": null,
            "FieldName": null,
            "FieldNameMaster": null,
            "ID": 162,
            "IsExisting": false,
            "IsForAccount": false,
            "IsForLead": false,
            "IsForOportunity": false,
            "IsSelected": false,
            "MainId": 303,
            "Name": "Reunion"
          },
          {
            "AllCustomField": null,
            "FieldName": null,
            "FieldNameMaster": null,
            "ID": 163,
            "IsExisting": false,
            "IsForAccount": false,
            "IsForLead": false,
            "IsForOportunity": false,
            "IsSelected": false,
            "MainId": 304,
            "Name": "Romania"
          },
          {
            "AllCustomField": null,
            "FieldName": null,
            "FieldNameMaster": null,
            "ID": 164,
            "IsExisting": false,
            "IsForAccount": false,
            "IsForLead": false,
            "IsForOportunity": false,
            "IsSelected": false,
            "MainId": 305,
            "Name": "Russia"
          },
          {
            "AllCustomField": null,
            "FieldName": null,
            "FieldNameMaster": null,
            "ID": 165,
            "IsExisting": false,
            "IsForAccount": false,
            "IsForLead": false,
            "IsForOportunity": false,
            "IsSelected": false,
            "MainId": 306,
            "Name": "Rwanda"
          },
          {
            "AllCustomField": null,
            "FieldName": null,
            "FieldNameMaster": null,
            "ID": 166,
            "IsExisting": false,
            "IsForAccount": false,
            "IsForLead": false,
            "IsForOportunity": false,
            "IsSelected": false,
            "MainId": 307,
            "Name": "Saipan"
          },
          {
            "AllCustomField": null,
            "FieldName": null,
            "FieldNameMaster": null,
            "ID": 167,
            "IsExisting": false,
            "IsForAccount": false,
            "IsForLead": false,
            "IsForOportunity": false,
            "IsSelected": false,
            "MainId": 308,
            "Name": "Samoa (American)"
          },
          {
            "AllCustomField": null,
            "FieldName": null,
            "FieldNameMaster": null,
            "ID": 168,
            "IsExisting": false,
            "IsForAccount": false,
            "IsForLead": false,
            "IsForOportunity": false,
            "IsSelected": false,
            "MainId": 309,
            "Name": "Samoa (Western)"
          },
          {
            "AllCustomField": null,
            "FieldName": null,
            "FieldNameMaster": null,
            "ID": 169,
            "IsExisting": false,
            "IsForAccount": false,
            "IsForLead": false,
            "IsForOportunity": false,
            "IsSelected": false,
            "MainId": 310,
            "Name": "San Marino"
          },
          {
            "AllCustomField": null,
            "FieldName": null,
            "FieldNameMaster": null,
            "ID": 170,
            "IsExisting": false,
            "IsForAccount": false,
            "IsForLead": false,
            "IsForOportunity": false,
            "IsSelected": false,
            "MainId": 311,
            "Name": "Saudi Arabia"
          },
          {
            "AllCustomField": null,
            "FieldName": null,
            "FieldNameMaster": null,
            "ID": 171,
            "IsExisting": false,
            "IsForAccount": false,
            "IsForLead": false,
            "IsForOportunity": false,
            "IsSelected": false,
            "MainId": 312,
            "Name": "Senegal"
          },
          {
            "AllCustomField": null,
            "FieldName": null,
            "FieldNameMaster": null,
            "ID": 172,
            "IsExisting": false,
            "IsForAccount": false,
            "IsForLead": false,
            "IsForOportunity": false,
            "IsSelected": false,
            "MainId": 313,
            "Name": "Serbia"
          },
          {
            "AllCustomField": null,
            "FieldName": null,
            "FieldNameMaster": null,
            "ID": 173,
            "IsExisting": false,
            "IsForAccount": false,
            "IsForLead": false,
            "IsForOportunity": false,
            "IsSelected": false,
            "MainId": 314,
            "Name": "Seychelles"
          },
          {
            "AllCustomField": null,
            "FieldName": null,
            "FieldNameMaster": null,
            "ID": 174,
            "IsExisting": false,
            "IsForAccount": false,
            "IsForLead": false,
            "IsForOportunity": false,
            "IsSelected": false,
            "MainId": 315,
            "Name": "Sierra Leone"
          },
          {
            "AllCustomField": null,
            "FieldName": null,
            "FieldNameMaster": null,
            "ID": 175,
            "IsExisting": false,
            "IsForAccount": false,
            "IsForLead": false,
            "IsForOportunity": false,
            "IsSelected": false,
            "MainId": 316,
            "Name": "Singapore"
          },
          {
            "AllCustomField": null,
            "FieldName": null,
            "FieldNameMaster": null,
            "ID": 176,
            "IsExisting": false,
            "IsForAccount": false,
            "IsForLead": false,
            "IsForOportunity": false,
            "IsSelected": false,
            "MainId": 317,
            "Name": "Slovakia"
          },
          {
            "AllCustomField": null,
            "FieldName": null,
            "FieldNameMaster": null,
            "ID": 177,
            "IsExisting": false,
            "IsForAccount": false,
            "IsForLead": false,
            "IsForOportunity": false,
            "IsSelected": false,
            "MainId": 318,
            "Name": "Slovenia"
          },
          {
            "AllCustomField": null,
            "FieldName": null,
            "FieldNameMaster": null,
            "ID": 178,
            "IsExisting": false,
            "IsForAccount": false,
            "IsForLead": false,
            "IsForOportunity": false,
            "IsSelected": false,
            "MainId": 319,
            "Name": "Solomon Islands"
          },
          {
            "AllCustomField": null,
            "FieldName": null,
            "FieldNameMaster": null,
            "ID": 179,
            "IsExisting": false,
            "IsForAccount": false,
            "IsForLead": false,
            "IsForOportunity": false,
            "IsSelected": false,
            "MainId": 320,
            "Name": "Somalia"
          },
          {
            "AllCustomField": null,
            "FieldName": null,
            "FieldNameMaster": null,
            "ID": 180,
            "IsExisting": false,
            "IsForAccount": false,
            "IsForLead": false,
            "IsForOportunity": false,
            "IsSelected": false,
            "MainId": 321,
            "Name": "South Africa"
          },
          {
            "AllCustomField": null,
            "FieldName": null,
            "FieldNameMaster": null,
            "ID": 181,
            "IsExisting": false,
            "IsForAccount": false,
            "IsForLead": false,
            "IsForOportunity": false,
            "IsSelected": false,
            "MainId": 322,
            "Name": "Spain"
          },
          {
            "AllCustomField": null,
            "FieldName": null,
            "FieldNameMaster": null,
            "ID": 182,
            "IsExisting": false,
            "IsForAccount": false,
            "IsForLead": false,
            "IsForOportunity": false,
            "IsSelected": false,
            "MainId": 323,
            "Name": "Sri Lanka"
          },
          {
            "AllCustomField": null,
            "FieldName": null,
            "FieldNameMaster": null,
            "ID": 183,
            "IsExisting": false,
            "IsForAccount": false,
            "IsForLead": false,
            "IsForOportunity": false,
            "IsSelected": false,
            "MainId": 324,
            "Name": "St. Kitts And"
          },
          {
            "AllCustomField": null,
            "FieldName": null,
            "FieldNameMaster": null,
            "ID": 184,
            "IsExisting": false,
            "IsForAccount": false,
            "IsForLead": false,
            "IsForOportunity": false,
            "IsSelected": false,
            "MainId": 325,
            "Name": "St. Lucia"
          },
          {
            "AllCustomField": null,
            "FieldName": null,
            "FieldNameMaster": null,
            "ID": 185,
            "IsExisting": false,
            "IsForAccount": false,
            "IsForLead": false,
            "IsForOportunity": false,
            "IsSelected": false,
            "MainId": 326,
            "Name": "St. Vincent"
          },
          {
            "AllCustomField": null,
            "FieldName": null,
            "FieldNameMaster": null,
            "ID": 186,
            "IsExisting": false,
            "IsForAccount": false,
            "IsForLead": false,
            "IsForOportunity": false,
            "IsSelected": false,
            "MainId": 327,
            "Name": "Sudan"
          },
          {
            "AllCustomField": null,
            "FieldName": null,
            "FieldNameMaster": null,
            "ID": 187,
            "IsExisting": false,
            "IsForAccount": false,
            "IsForLead": false,
            "IsForOportunity": false,
            "IsSelected": false,
            "MainId": 328,
            "Name": "Suriname"
          },
          {
            "AllCustomField": null,
            "FieldName": null,
            "FieldNameMaster": null,
            "ID": 188,
            "IsExisting": false,
            "IsForAccount": false,
            "IsForLead": false,
            "IsForOportunity": false,
            "IsSelected": false,
            "MainId": 329,
            "Name": "Swaziland"
          },
          {
            "AllCustomField": null,
            "FieldName": null,
            "FieldNameMaster": null,
            "ID": 189,
            "IsExisting": false,
            "IsForAccount": false,
            "IsForLead": false,
            "IsForOportunity": false,
            "IsSelected": false,
            "MainId": 330,
            "Name": "Sweden"
          },
          {
            "AllCustomField": null,
            "FieldName": null,
            "FieldNameMaster": null,
            "ID": 190,
            "IsExisting": false,
            "IsForAccount": false,
            "IsForLead": false,
            "IsForOportunity": false,
            "IsSelected": false,
            "MainId": 331,
            "Name": "Switzerland"
          },
          {
            "AllCustomField": null,
            "FieldName": null,
            "FieldNameMaster": null,
            "ID": 191,
            "IsExisting": false,
            "IsForAccount": false,
            "IsForLead": false,
            "IsForOportunity": false,
            "IsSelected": false,
            "MainId": 332,
            "Name": "Syria"
          },
          {
            "AllCustomField": null,
            "FieldName": null,
            "FieldNameMaster": null,
            "ID": 192,
            "IsExisting": false,
            "IsForAccount": false,
            "IsForLead": false,
            "IsForOportunity": false,
            "IsSelected": false,
            "MainId": 333,
            "Name": "Taiwan"
          },
          {
            "AllCustomField": null,
            "FieldName": null,
            "FieldNameMaster": null,
            "ID": 193,
            "IsExisting": false,
            "IsForAccount": false,
            "IsForLead": false,
            "IsForOportunity": false,
            "IsSelected": false,
            "MainId": 334,
            "Name": "Tajikistan"
          },
          {
            "AllCustomField": null,
            "FieldName": null,
            "FieldNameMaster": null,
            "ID": 194,
            "IsExisting": false,
            "IsForAccount": false,
            "IsForLead": false,
            "IsForOportunity": false,
            "IsSelected": false,
            "MainId": 335,
            "Name": "Tanzania"
          },
          {
            "AllCustomField": null,
            "FieldName": null,
            "FieldNameMaster": null,
            "ID": 195,
            "IsExisting": false,
            "IsForAccount": false,
            "IsForLead": false,
            "IsForOportunity": false,
            "IsSelected": false,
            "MainId": 336,
            "Name": "Thailand"
          },
          {
            "AllCustomField": null,
            "FieldName": null,
            "FieldNameMaster": null,
            "ID": 196,
            "IsExisting": false,
            "IsForAccount": false,
            "IsForLead": false,
            "IsForOportunity": false,
            "IsSelected": false,
            "MainId": 337,
            "Name": "Togo"
          },
          {
            "AllCustomField": null,
            "FieldName": null,
            "FieldNameMaster": null,
            "ID": 197,
            "IsExisting": false,
            "IsForAccount": false,
            "IsForLead": false,
            "IsForOportunity": false,
            "IsSelected": false,
            "MainId": 338,
            "Name": "Tonga Islands"
          },
          {
            "AllCustomField": null,
            "FieldName": null,
            "FieldNameMaster": null,
            "ID": 198,
            "IsExisting": false,
            "IsForAccount": false,
            "IsForLead": false,
            "IsForOportunity": false,
            "IsSelected": false,
            "MainId": 339,
            "Name": "Trinidad and"
          },
          {
            "AllCustomField": null,
            "FieldName": null,
            "FieldNameMaster": null,
            "ID": 199,
            "IsExisting": false,
            "IsForAccount": false,
            "IsForLead": false,
            "IsForOportunity": false,
            "IsSelected": false,
            "MainId": 340,
            "Name": "Tunisia"
          },
          {
            "AllCustomField": null,
            "FieldName": null,
            "FieldNameMaster": null,
            "ID": 200,
            "IsExisting": false,
            "IsForAccount": false,
            "IsForLead": false,
            "IsForOportunity": false,
            "IsSelected": false,
            "MainId": 341,
            "Name": "Turkey"
          },
          {
            "AllCustomField": null,
            "FieldName": null,
            "FieldNameMaster": null,
            "ID": 201,
            "IsExisting": false,
            "IsForAccount": false,
            "IsForLead": false,
            "IsForOportunity": false,
            "IsSelected": false,
            "MainId": 342,
            "Name": "Turks and Caicos"
          },
          {
            "AllCustomField": null,
            "FieldName": null,
            "FieldNameMaster": null,
            "ID": 202,
            "IsExisting": false,
            "IsForAccount": false,
            "IsForLead": false,
            "IsForOportunity": false,
            "IsSelected": false,
            "MainId": 343,
            "Name": "Turkmenistan"
          },
          {
            "AllCustomField": null,
            "FieldName": null,
            "FieldNameMaster": null,
            "ID": 203,
            "IsExisting": false,
            "IsForAccount": false,
            "IsForLead": false,
            "IsForOportunity": false,
            "IsSelected": false,
            "MainId": 344,
            "Name": "Uganda"
          },
          {
            "AllCustomField": null,
            "FieldName": null,
            "FieldNameMaster": null,
            "ID": 204,
            "IsExisting": false,
            "IsForAccount": false,
            "IsForLead": false,
            "IsForOportunity": false,
            "IsSelected": false,
            "MainId": 345,
            "Name": "UK"
          },
          {
            "AllCustomField": null,
            "FieldName": null,
            "FieldNameMaster": null,
            "ID": 205,
            "IsExisting": false,
            "IsForAccount": false,
            "IsForLead": false,
            "IsForOportunity": false,
            "IsSelected": false,
            "MainId": 346,
            "Name": "Ukraine"
          },
          {
            "AllCustomField": null,
            "FieldName": null,
            "FieldNameMaster": null,
            "ID": 206,
            "IsExisting": false,
            "IsForAccount": false,
            "IsForLead": false,
            "IsForOportunity": false,
            "IsSelected": false,
            "MainId": 347,
            "Name": "United Arab"
          },
          {
            "AllCustomField": null,
            "FieldName": null,
            "FieldNameMaster": null,
            "ID": 207,
            "IsExisting": false,
            "IsForAccount": false,
            "IsForLead": false,
            "IsForOportunity": false,
            "IsSelected": false,
            "MainId": 348,
            "Name": "Uruguay"
          },
          {
            "AllCustomField": null,
            "FieldName": null,
            "FieldNameMaster": null,
            "ID": 208,
            "IsExisting": false,
            "IsForAccount": false,
            "IsForLead": false,
            "IsForOportunity": false,
            "IsSelected": false,
            "MainId": 349,
            "Name": "USA"
          },
          {
            "AllCustomField": null,
            "FieldName": null,
            "FieldNameMaster": null,
            "ID": 209,
            "IsExisting": false,
            "IsForAccount": false,
            "IsForLead": false,
            "IsForOportunity": false,
            "IsSelected": false,
            "MainId": 350,
            "Name": "Uzbekistan"
          },
          {
            "AllCustomField": null,
            "FieldName": null,
            "FieldNameMaster": null,
            "ID": 210,
            "IsExisting": false,
            "IsForAccount": false,
            "IsForLead": false,
            "IsForOportunity": false,
            "IsSelected": false,
            "MainId": 351,
            "Name": "Vanuatu"
          },
          {
            "AllCustomField": null,
            "FieldName": null,
            "FieldNameMaster": null,
            "ID": 211,
            "IsExisting": false,
            "IsForAccount": false,
            "IsForLead": false,
            "IsForOportunity": false,
            "IsSelected": false,
            "MainId": 352,
            "Name": "Vatican City"
          },
          {
            "AllCustomField": null,
            "FieldName": null,
            "FieldNameMaster": null,
            "ID": 212,
            "IsExisting": false,
            "IsForAccount": false,
            "IsForLead": false,
            "IsForOportunity": false,
            "IsSelected": false,
            "MainId": 353,
            "Name": "Venezuela"
          },
          {
            "AllCustomField": null,
            "FieldName": null,
            "FieldNameMaster": null,
            "ID": 213,
            "IsExisting": false,
            "IsForAccount": false,
            "IsForLead": false,
            "IsForOportunity": false,
            "IsSelected": false,
            "MainId": 354,
            "Name": "Vietnam"
          },
          {
            "AllCustomField": null,
            "FieldName": null,
            "FieldNameMaster": null,
            "ID": 214,
            "IsExisting": false,
            "IsForAccount": false,
            "IsForLead": false,
            "IsForOportunity": false,
            "IsSelected": false,
            "MainId": 355,
            "Name": "Virgin Islands"
          },
          {
            "AllCustomField": null,
            "FieldName": null,
            "FieldNameMaster": null,
            "ID": 215,
            "IsExisting": false,
            "IsForAccount": false,
            "IsForLead": false,
            "IsForOportunity": false,
            "IsSelected": false,
            "MainId": 356,
            "Name": "Yemen"
          },
          {
            "AllCustomField": null,
            "FieldName": null,
            "FieldNameMaster": null,
            "ID": 216,
            "IsExisting": false,
            "IsForAccount": false,
            "IsForLead": false,
            "IsForOportunity": false,
            "IsSelected": false,
            "MainId": 357,
            "Name": "Zambia"
          },
          {
            "AllCustomField": null,
            "FieldName": null,
            "FieldNameMaster": null,
            "ID": 217,
            "IsExisting": false,
            "IsForAccount": false,
            "IsForLead": false,
            "IsForOportunity": false,
            "IsSelected": false,
            "MainId": 358,
            "Name": "Zanzibar"
          },
          {
            "AllCustomField": null,
            "FieldName": null,
            "FieldNameMaster": null,
            "ID": 218,
            "IsExisting": false,
            "IsForAccount": false,
            "IsForLead": false,
            "IsForOportunity": false,
            "IsSelected": false,
            "MainId": 359,
            "Name": "Zimbabwe"
          }
        ]
      },
      {
        "FieldDataType": "Numeric",
        "FieldName": "Direct Dial",
        "FieldNameMaster": "Direct Dial",
        "ID": 51,
        "IsExisting": true,
        "IsMandatory": false,
        "IsVisible": true,
        "Priority": null,
        "Value": null,
        "dropDownValues": null
      },
      {
        "FieldDataType": "Date",
        "FieldName": "Birthday",
        "FieldNameMaster": "BirthDay",
        "ID": 52,
        "IsExisting": true,
        "IsMandatory": false,
        "IsVisible": true,
        "Priority": null,
        "Value": null,
        "dropDownValues": null
      },
      {
        "FieldDataType": "Text",
        "FieldName": "Company",
        "FieldNameMaster": "Company",
        "ID": 53,
        "IsExisting": true,
        "IsMandatory": false,
        "IsVisible": true,
        "Priority": null,
        "Value": null,
        "dropDownValues": null
      },
      {
        "FieldDataType": "Numeric",
        "FieldName": "Mobile",
        "FieldNameMaster": "Mobile",
        "ID": 54,
        "IsExisting": true,
        "IsMandatory": false,
        "IsVisible": true,
        "Priority": null,
        "Value": null,
        "dropDownValues": null
      },
      {
        "FieldDataType": "Text",
        "FieldName": "Twitter",
        "FieldNameMaster": "Twitter",
        "ID": 55,
        "IsExisting": true,
        "IsMandatory": false,
        "IsVisible": true,
        "Priority": null,
        "Value": null,
        "dropDownValues": null
      },
      {
        "FieldDataType": "Text",
        "FieldName": "LinkedIn",
        "FieldNameMaster": "LinkedIn",
        "ID": 56,
        "IsExisting": true,
        "IsMandatory": false,
        "IsVisible": true,
        "Priority": null,
        "Value": null,
        "dropDownValues": null
      },
      {
        "FieldDataType": "Dropdown",
        "FieldName": "Advance drop",
        "FieldNameMaster": "Advance drop",
        "ID": 82,
        "IsExisting": false,
        "IsMandatory": false,
        "IsVisible": true,
        "Priority": null,
        "Value": null,
        "dropDownValues": [
          {
            "AllCustomField": null,
            "FieldName": null,
            "FieldNameMaster": null,
            "ID": 0,
            "IsExisting": false,
            "IsForAccount": false,
            "IsForLead": false,
            "IsForOportunity": false,
            "IsSelected": false,
            "MainId": 572,
            "Name": "qq"
          },
          {
            "AllCustomField": null,
            "FieldName": null,
            "FieldNameMaster": null,
            "ID": 0,
            "IsExisting": false,
            "IsForAccount": false,
            "IsForLead": false,
            "IsForOportunity": false,
            "IsSelected": false,
            "MainId": 588,
            "Name": "Kiwi"
          },
          {
            "AllCustomField": null,
            "FieldName": null,
            "FieldNameMaster": null,
            "ID": 0,
            "IsExisting": false,
            "IsForAccount": false,
            "IsForLead": false,
            "IsForOportunity": false,
            "IsSelected": false,
            "MainId": 587,
            "Name": "grapesssss"
          },
          {
            "AllCustomField": null,
            "FieldName": null,
            "FieldNameMaster": null,
            "ID": 0,
            "IsExisting": false,
            "IsForAccount": false,
            "IsForLead": false,
            "IsForOportunity": false,
            "IsSelected": false,
            "MainId": 590,
            "Name": "apple"
          }
        ]
      },
      {
        "FieldDataType": "Numeric",
        "FieldName": "advance number",
        "FieldNameMaster": "advance number",
        "ID": 83,
        "IsExisting": false,
        "IsMandatory": false,
        "IsVisible": true,
        "Priority": null,
        "Value": null,
        "dropDownValues": null
      },
      {
        "FieldDataType": "Text",
        "FieldName": "Notes",
        "FieldNameMaster": "Notes",
        "ID": 61,
        "IsExisting": true,
        "IsMandatory": false,
        "IsVisible": true,
        "Priority": null,
        "Value": null,
        "dropDownValues": null
      },
      {
        "FieldDataType": "image",
        "FieldName": "Contact Image",
        "FieldNameMaster": "ContactImage",
        "ID": 62,
        "IsExisting": true,
        "IsMandatory": false,
        "IsVisible": true,
        "Priority": null,
        "Value": null,
        "dropDownValues": null
      },
      {
        "FieldDataType": "select",
        "FieldName": "Tags",
        "FieldNameMaster": "Tags",
        "ID": 101,
        "IsExisting": true,
        "IsMandatory": false,
        "IsVisible": true,
        "Priority": null,
        "Value": null,
        "dropDownValues": null
      },
      {
        "FieldDataType": "TextArea",
        "FieldName": "Textttt area",
        "FieldNameMaster": "Textttt area",
        "ID": 1247,
        "IsExisting": false,
        "IsMandatory": false,
        "IsVisible": true,
        "Priority": null,
        "Value": null,
        "dropDownValues": null
      },
      {
        "FieldDataType": "checkbox",
        "FieldName": "Post optout",
        "FieldNameMaster": "Post optout",
        "ID": 57,
        "IsExisting": true,
        "IsMandatory": false,
        "IsVisible": true,
        "Priority": null,
        "Value": null,
        "dropDownValues": null
      },
      {
        "FieldDataType": "checkbox",
        "FieldName": "Telephone optout",
        "FieldNameMaster": "Telephone optout",
        "ID": 58,
        "IsExisting": true,
        "IsMandatory": false,
        "IsVisible": true,
        "Priority": null,
        "Value": null,
        "dropDownValues": null
      },
      {
        "FieldDataType": "checkbox",
        "FieldName": "Email Promos optout",
        "FieldNameMaster": "Email Promos optout",
        "ID": 59,
        "IsExisting": true,
        "IsMandatory": false,
        "IsVisible": true,
        "Priority": null,
        "Value": null,
        "dropDownValues": null
      },
      {
        "FieldDataType": "checkbox",
        "FieldName": "Email Newsletters optout",
        "FieldNameMaster": "Email Newsletters optout",
        "ID": 60,
        "IsExisting": true,
        "IsMandatory": false,
        "IsVisible": true,
        "Priority": null,
        "Value": null,
        "dropDownValues": null
      }
    ],
    "BasicContactList": null,
    "EmailClientList": null,
    "OpportunityList": null,
    "RecordId": 0,
    "masterFields": null,
    "tradingFields": null
  }
}