
API NAME:- GET Prefilled Template Details for Pending Action

http://35.176.25.71:8082/v2/Services/Admin/WorkFlowService.svc/IOSGetTemplateDetails

Request:-
{
  "accountID" : 77366,
  "objectActionTrackingID" : 145,
  "actionName" : "Call",
  "baseEntity" : {
    "SubscriptionType" : "company",
    "BaseDBName" : "BuddyCRMDB_001",
    "BaseSubscriptionID" : "Buddy_001",
    "CustomEditId" : 0,
    "BaseUserID" : 10127
  }
}


Response:-
{
    "BaseDBName": null,
    "BaseSubscriptionID": null,
    "BaseUserID": 0,
    "CustomEditId": 0,
    "FieldName": null,
    "Ip": null,
    "ObjID": 0,
    "SubscriptionType": null,
    "Code": 100,
    "CustomColumns": null,
    "Data": null,
    "IsPending": 0,
    "Message": "SUCCESS",
    "ScalerData": {
        "ActivityTemplate": null,
        "ActivityTemplateDynamic": {
            "ActivityDynamicDetails": [
                {
                    "FieldDataType": "Text",
                    "FieldName": "Subject",
                    "FieldNameMaster": "Subject",
                    "ID": 4298,
                    "IsExisting": true,
                    "IsMandatory": true,
                    "IsVisible": true,
                    "Priority": null,
                    "Value": "call template",
                    "dropDownValues": null
                },
                {
                    "FieldDataType": "select",
                    "FieldName": "Assigned To",
                    "FieldNameMaster": "AssignedTo",
                    "ID": 4299,
                    "IsExisting": true,
                    "IsMandatory": true,
                    "IsVisible": true,
                    "Priority": null,
                    "Value": "lead neha /77366",
                    "dropDownValues": null
                },
                {
                    "FieldDataType": "select",
                    "FieldName": "Opportunity",
                    "FieldNameMaster": "Opportunity",
                    "ID": 4300,
                    "IsExisting": true,
                    "IsMandatory": false,
                    "IsVisible": true,
                    "Priority": null,
                    "Value": " ",
                    "dropDownValues": null
                },
                {
                    "FieldDataType": "Dropdown",
                    "FieldName": "Owner",
                    "FieldNameMaster": "OwnerID",
                    "ID": 6,
                    "IsExisting": true,
                    "IsMandatory": true,
                    "IsVisible": true,
                    "Priority": null,
                    "Value": "Philip Mayling",
                    "dropDownValues": [
                        {
                            "AllCustomField": null,
                            "BodyContent": null,
                            "FieldName": null,
                            "FieldNameMaster": null,
                            "ID": 1,
                            "IsExisting": false,
                            "IsForAccount": false,
                            "IsForLead": false,
                            "IsForOportunity": false,
                            "IsSelected": false,
                            "MainId": 1,
                            "Name": "Philip Mayling",
                            "Subject": null
                        },
                        {
                            "AllCustomField": null,
                            "BodyContent": null,
                            "FieldName": null,
                            "FieldNameMaster": null,
                            "ID": 3,
                            "IsExisting": false,
                            "IsForAccount": false,
                            "IsForLead": false,
                            "IsForOportunity": false,
                            "IsSelected": false,
                            "MainId": 3,
                            "Name": "Carole Hudson",
                            "Subject": null
                        },
                        {
                            "AllCustomField": null,
                            "BodyContent": null,
                            "FieldName": null,
                            "FieldNameMaster": null,
                            "ID": 14,
                            "IsExisting": false,
                            "IsForAccount": false,
                            "IsForLead": false,
                            "IsForOportunity": false,
                            "IsSelected": false,
                            "MainId": 14,
                            "Name": "Hazel Moyes",
                            "Subject": null
                        },
                        {
                            "AllCustomField": null,
                            "BodyContent": null,
                            "FieldName": null,
                            "FieldNameMaster": null,
                            "ID": 24,
                            "IsExisting": false,
                            "IsForAccount": false,
                            "IsForLead": false,
                            "IsForOportunity": false,
                            "IsSelected": false,
                            "MainId": 24,
                            "Name": "Eric Pillinger",
                            "Subject": null
                        },
                        {
                            "AllCustomField": null,
                            "BodyContent": null,
                            "FieldName": null,
                            "FieldNameMaster": null,
                            "ID": 30,
                            "IsExisting": false,
                            "IsForAccount": false,
                            "IsForLead": false,
                            "IsForOportunity": false,
                            "IsSelected": false,
                            "MainId": 30,
                            "Name": "Helen Parker",
                            "Subject": null
                        },
                        {
                            "AllCustomField": null,
                            "BodyContent": null,
                            "FieldName": null,
                            "FieldNameMaster": null,
                            "ID": 67,
                            "IsExisting": false,
                            "IsForAccount": false,
                            "IsForLead": false,
                            "IsForOportunity": false,
                            "IsSelected": false,
                            "MainId": 66,
                            "Name": "Margaret Pillinger",
                            "Subject": null
                        },
                        {
                            "AllCustomField": null,
                            "BodyContent": null,
                            "FieldName": null,
                            "FieldNameMaster": null,
                            "ID": 78,
                            "IsExisting": false,
                            "IsForAccount": false,
                            "IsForLead": false,
                            "IsForOportunity": false,
                            "IsSelected": false,
                            "MainId": 77,
                            "Name": "Richard Mundon",
                            "Subject": null
                        },
                        {
                            "AllCustomField": null,
                            "BodyContent": null,
                            "FieldName": null,
                            "FieldNameMaster": null,
                            "ID": 10085,
                            "IsExisting": false,
                            "IsForAccount": false,
                            "IsForLead": false,
                            "IsForOportunity": false,
                            "IsSelected": false,
                            "MainId": 85,
                            "Name": "Madhulika Rao",
                            "Subject": null
                        },
                        {
                            "AllCustomField": null,
                            "BodyContent": null,
                            "FieldName": null,
                            "FieldNameMaster": null,
                            "ID": 10089,
                            "IsExisting": false,
                            "IsForAccount": false,
                            "IsForLead": false,
                            "IsForOportunity": false,
                            "IsSelected": false,
                            "MainId": 89,
                            "Name": "Samantha North",
                            "Subject": null
                        },
                        {
                            "AllCustomField": null,
                            "BodyContent": null,
                            "FieldName": null,
                            "FieldNameMaster": null,
                            "ID": 10090,
                            "IsExisting": false,
                            "IsForAccount": false,
                            "IsForLead": false,
                            "IsForOportunity": false,
                            "IsSelected": false,
                            "MainId": 90,
                            "Name": "Natalie Barlow",
                            "Subject": null
                        },
                        {
                            "AllCustomField": null,
                            "BodyContent": null,
                            "FieldName": null,
                            "FieldNameMaster": null,
                            "ID": 10092,
                            "IsExisting": false,
                            "IsForAccount": false,
                            "IsForLead": false,
                            "IsForOportunity": false,
                            "IsSelected": false,
                            "MainId": 92,
                            "Name": "Kamran Ahmed",
                            "Subject": null
                        },
                        {
                            "AllCustomField": null,
                            "BodyContent": null,
                            "FieldName": null,
                            "FieldNameMaster": null,
                            "ID": 10093,
                            "IsExisting": false,
                            "IsForAccount": false,
                            "IsForLead": false,
                            "IsForOportunity": false,
                            "IsSelected": false,
                            "MainId": 93,
                            "Name": "Chris Hnatiuk",
                            "Subject": null
                        },
                        {
                            "AllCustomField": null,
                            "BodyContent": null,
                            "FieldName": null,
                            "FieldNameMaster": null,
                            "ID": 10096,
                            "IsExisting": false,
                            "IsForAccount": false,
                            "IsForLead": false,
                            "IsForOportunity": false,
                            "IsSelected": false,
                            "MainId": 96,
                            "Name": "Jejen Flack",
                            "Subject": null
                        },
                        {
                            "AllCustomField": null,
                            "BodyContent": null,
                            "FieldName": null,
                            "FieldNameMaster": null,
                            "ID": 10098,
                            "IsExisting": false,
                            "IsForAccount": false,
                            "IsForLead": false,
                            "IsForOportunity": false,
                            "IsSelected": false,
                            "MainId": 98,
                            "Name": "Cristian Ilinca",
                            "Subject": null
                        },
                        {
                            "AllCustomField": null,
                            "BodyContent": null,
                            "FieldName": null,
                            "FieldNameMaster": null,
                            "ID": 10103,
                            "IsExisting": false,
                            "IsForAccount": false,
                            "IsForLead": false,
                            "IsForOportunity": false,
                            "IsSelected": false,
                            "MainId": 103,
                            "Name": "Lauren Sams",
                            "Subject": null
                        },
                        {
                            "AllCustomField": null,
                            "BodyContent": null,
                            "FieldName": null,
                            "FieldNameMaster": null,
                            "ID": 10104,
                            "IsExisting": false,
                            "IsForAccount": false,
                            "IsForLead": false,
                            "IsForOportunity": false,
                            "IsSelected": false,
                            "MainId": 540,
                            "Name": "Liam OKeefe",
                            "Subject": null
                        },
                        {
                            "AllCustomField": null,
                            "BodyContent": null,
                            "FieldName": null,
                            "FieldNameMaster": null,
                            "ID": 10108,
                            "IsExisting": false,
                            "IsForAccount": false,
                            "IsForLead": false,
                            "IsForOportunity": false,
                            "IsSelected": false,
                            "MainId": 554,
                            "Name": "Nick Washington-Jones",
                            "Subject": null
                        },
                        {
                            "AllCustomField": null,
                            "BodyContent": null,
                            "FieldName": null,
                            "FieldNameMaster": null,
                            "ID": 10109,
                            "IsExisting": false,
                            "IsForAccount": false,
                            "IsForLead": false,
                            "IsForOportunity": false,
                            "IsSelected": false,
                            "MainId": 561,
                            "Name": "Lauren Kidd",
                            "Subject": null
                        },
                        {
                            "AllCustomField": null,
                            "BodyContent": null,
                            "FieldName": null,
                            "FieldNameMaster": null,
                            "ID": 10110,
                            "IsExisting": false,
                            "IsForAccount": false,
                            "IsForLead": false,
                            "IsForOportunity": false,
                            "IsSelected": false,
                            "MainId": 562,
                            "Name": "Rachel Watts",
                            "Subject": null
                        },
                        {
                            "AllCustomField": null,
                            "BodyContent": null,
                            "FieldName": null,
                            "FieldNameMaster": null,
                            "ID": 10114,
                            "IsExisting": false,
                            "IsForAccount": false,
                            "IsForLead": false,
                            "IsForOportunity": false,
                            "IsSelected": false,
                            "MainId": 570,
                            "Name": "Elie Zialor",
                            "Subject": null
                        },
                        {
                            "AllCustomField": null,
                            "BodyContent": null,
                            "FieldName": null,
                            "FieldNameMaster": null,
                            "ID": 10115,
                            "IsExisting": false,
                            "IsForAccount": false,
                            "IsForLead": false,
                            "IsForOportunity": false,
                            "IsSelected": false,
                            "MainId": 571,
                            "Name": "Tom Morgan",
                            "Subject": null
                        },
                        {
                            "AllCustomField": null,
                            "BodyContent": null,
                            "FieldName": null,
                            "FieldNameMaster": null,
                            "ID": 10117,
                            "IsExisting": false,
                            "IsForAccount": false,
                            "IsForLead": false,
                            "IsForOportunity": false,
                            "IsSelected": false,
                            "MainId": 577,
                            "Name": "charu Sindhu",
                            "Subject": null
                        },
                        {
                            "AllCustomField": null,
                            "BodyContent": null,
                            "FieldName": null,
                            "FieldNameMaster": null,
                            "ID": 10121,
                            "IsExisting": false,
                            "IsForAccount": false,
                            "IsForLead": false,
                            "IsForOportunity": false,
                            "IsSelected": false,
                            "MainId": 592,
                            "Name": "Tripti Srivastava",
                            "Subject": null
                        },
                        {
                            "AllCustomField": null,
                            "BodyContent": null,
                            "FieldName": null,
                            "FieldNameMaster": null,
                            "ID": 10126,
                            "IsExisting": false,
                            "IsForAccount": false,
                            "IsForLead": false,
                            "IsForOportunity": false,
                            "IsSelected": false,
                            "MainId": 597,
                            "Name": "Deepak Sir",
                            "Subject": null
                        },
                        {
                            "AllCustomField": null,
                            "BodyContent": null,
                            "FieldName": null,
                            "FieldNameMaster": null,
                            "ID": 10127,
                            "IsExisting": false,
                            "IsForAccount": false,
                            "IsForLead": false,
                            "IsForOportunity": false,
                            "IsSelected": false,
                            "MainId": 598,
                            "Name": "neha gandhi",
                            "Subject": null
                        },
                        {
                            "AllCustomField": null,
                            "BodyContent": null,
                            "FieldName": null,
                            "FieldNameMaster": null,
                            "ID": 10129,
                            "IsExisting": false,
                            "IsForAccount": false,
                            "IsForLead": false,
                            "IsForOportunity": false,
                            "IsSelected": false,
                            "MainId": 601,
                            "Name": "Bhuvnesh Badhera",
                            "Subject": null
                        },
                        {
                            "AllCustomField": null,
                            "BodyContent": null,
                            "FieldName": null,
                            "FieldNameMaster": null,
                            "ID": 10130,
                            "IsExisting": false,
                            "IsForAccount": false,
                            "IsForLead": false,
                            "IsForOportunity": false,
                            "IsSelected": false,
                            "MainId": 602,
                            "Name": "hgjgfjgf ghjgfhj",
                            "Subject": null
                        },
                        {
                            "AllCustomField": null,
                            "BodyContent": null,
                            "FieldName": null,
                            "FieldNameMaster": null,
                            "ID": 10131,
                            "IsExisting": false,
                            "IsForAccount": false,
                            "IsForLead": false,
                            "IsForOportunity": false,
                            "IsSelected": false,
                            "MainId": 603,
                            "Name": "hjukkkkk uuuuuuuu",
                            "Subject": null
                        },
                        {
                            "AllCustomField": null,
                            "BodyContent": null,
                            "FieldName": null,
                            "FieldNameMaster": null,
                            "ID": 10132,
                            "IsExisting": false,
                            "IsForAccount": false,
                            "IsForLead": false,
                            "IsForOportunity": false,
                            "IsSelected": false,
                            "MainId": 604,
                            "Name": "Bhhhflh ghgd",
                            "Subject": null
                        },
                        {
                            "AllCustomField": null,
                            "BodyContent": null,
                            "FieldName": null,
                            "FieldNameMaster": null,
                            "ID": 10133,
                            "IsExisting": false,
                            "IsForAccount": false,
                            "IsForLead": false,
                            "IsForOportunity": false,
                            "IsSelected": false,
                            "MainId": 605,
                            "Name": "gjmkgjkmgjm gjmgjmgfj",
                            "Subject": null
                        },
                        {
                            "AllCustomField": null,
                            "BodyContent": null,
                            "FieldName": null,
                            "FieldNameMaster": null,
                            "ID": 10134,
                            "IsExisting": false,
                            "IsForAccount": false,
                            "IsForLead": false,
                            "IsForOportunity": false,
                            "IsSelected": false,
                            "MainId": 607,
                            "Name": "Bhuvnesh Test Test Why",
                            "Subject": null
                        },
                        {
                            "AllCustomField": null,
                            "BodyContent": null,
                            "FieldName": null,
                            "FieldNameMaster": null,
                            "ID": 10135,
                            "IsExisting": false,
                            "IsForAccount": false,
                            "IsForLead": false,
                            "IsForOportunity": false,
                            "IsSelected": false,
                            "MainId": 608,
                            "Name": "Test Charu",
                            "Subject": null
                        },
                        {
                            "AllCustomField": null,
                            "BodyContent": null,
                            "FieldName": null,
                            "FieldNameMaster": null,
                            "ID": 10137,
                            "IsExisting": false,
                            "IsForAccount": false,
                            "IsForLead": false,
                            "IsForOportunity": false,
                            "IsSelected": false,
                            "MainId": 641,
                            "Name": "Devbrat  Sahoo",
                            "Subject": null
                        }
                    ]
                },
                {
                    "FieldDataType": "Date",
                    "FieldName": "Start At",
                    "FieldNameMaster": "StartAt",
                    "ID": 4304,
                    "IsExisting": true,
                    "IsMandatory": true,
                    "IsVisible": true,
                    "Priority": null,
                    "Value": "07/03/2018 01:00 PM",
                    "dropDownValues": null
                },
                {
                    "FieldDataType": "Date",
                    "FieldName": "End On",
                    "FieldNameMaster": "EndOn",
                    "ID": 4305,
                    "IsExisting": true,
                    "IsMandatory": true,
                    "IsVisible": true,
                    "Priority": null,
                    "Value": "07/03/2018 01:30 PM",
                    "dropDownValues": null
                },
                {
                    "FieldDataType": "Text",
                    "FieldName": "Location",
                    "FieldNameMaster": "Location",
                    "ID": 4301,
                    "IsExisting": true,
                    "IsMandatory": false,
                    "IsVisible": true,
                    "Priority": null,
                    "Value": "delhi",
                    "dropDownValues": null
                },
                {
                    "FieldDataType": "TextArea",
                    "FieldName": "Objectives",
                    "FieldNameMaster": "Objectives",
                    "ID": 4302,
                    "IsExisting": true,
                    "IsMandatory": false,
                    "IsVisible": true,
                    "Priority": null,
                    "Value": "test new/0",
                    "dropDownValues": null
                },
                {
                    "FieldDataType": "TextArea",
                    "FieldName": "Objective 2",
                    "FieldNameMaster": "Objective2",
                    "ID": 4302,
                    "IsExisting": true,
                    "IsMandatory": false,
                    "IsVisible": true,
                    "Priority": null,
                    "Value": "",
                    "dropDownValues": null
                },
                {
                    "FieldDataType": "TextArea",
                    "FieldName": "Objective 3",
                    "FieldNameMaster": "Objective3",
                    "ID": 4302,
                    "IsExisting": true,
                    "IsMandatory": false,
                    "IsVisible": true,
                    "Priority": null,
                    "Value": "",
                    "dropDownValues": null
                },
                {
                    "FieldDataType": "TextArea",
                    "FieldName": "Objective 4",
                    "FieldNameMaster": "Objective4",
                    "ID": 4302,
                    "IsExisting": true,
                    "IsMandatory": false,
                    "IsVisible": true,
                    "Priority": null,
                    "Value": "",
                    "dropDownValues": null
                },
                {
                    "FieldDataType": "TextArea",
                    "FieldName": "Description",
                    "FieldNameMaster": "Description",
                    "ID": 46,
                    "IsExisting": true,
                    "IsMandatory": true,
                    "IsVisible": true,
                    "Priority": null,
                    "Value": "dgfgdffdhd",
                    "dropDownValues": null
                },
                {
                    "FieldDataType": "TextArea",
                    "FieldName": "Completion Notes",
                    "FieldNameMaster": "CompletionNote",
                    "ID": 4303,
                    "IsExisting": true,
                    "IsMandatory": false,
                    "IsVisible": true,
                    "Priority": null,
                    "Value": "",
                    "dropDownValues": null
                },
                {
                    "FieldDataType": "dropdown",
                    "FieldName": "Reminder",
                    "FieldNameMaster": "Reminder",
                    "ID": 4306,
                    "IsExisting": true,
                    "IsMandatory": false,
                    "IsVisible": true,
                    "Priority": null,
                    "Value": "",
                    "dropDownValues": [
                        {
                            "AllCustomField": null,
                            "BodyContent": null,
                            "FieldName": null,
                            "FieldNameMaster": null,
                            "ID": 0,
                            "IsExisting": false,
                            "IsForAccount": false,
                            "IsForLead": false,
                            "IsForOportunity": false,
                            "IsSelected": false,
                            "MainId": 0,
                            "Name": "Please Select",
                            "Subject": null
                        },
                        {
                            "AllCustomField": null,
                            "BodyContent": null,
                            "FieldName": null,
                            "FieldNameMaster": null,
                            "ID": 1,
                            "IsExisting": false,
                            "IsForAccount": false,
                            "IsForLead": false,
                            "IsForOportunity": false,
                            "IsSelected": false,
                            "MainId": 1,
                            "Name": "5 Min",
                            "Subject": null
                        },
                        {
                            "AllCustomField": null,
                            "BodyContent": null,
                            "FieldName": null,
                            "FieldNameMaster": null,
                            "ID": 2,
                            "IsExisting": false,
                            "IsForAccount": false,
                            "IsForLead": false,
                            "IsForOportunity": false,
                            "IsSelected": false,
                            "MainId": 2,
                            "Name": "10 Min",
                            "Subject": null
                        },
                        {
                            "AllCustomField": null,
                            "BodyContent": null,
                            "FieldName": null,
                            "FieldNameMaster": null,
                            "ID": 3,
                            "IsExisting": false,
                            "IsForAccount": false,
                            "IsForLead": false,
                            "IsForOportunity": false,
                            "IsSelected": false,
                            "MainId": 3,
                            "Name": "1 Hour",
                            "Subject": null
                        },
                        {
                            "AllCustomField": null,
                            "BodyContent": null,
                            "FieldName": null,
                            "FieldNameMaster": null,
                            "ID": 4,
                            "IsExisting": false,
                            "IsForAccount": false,
                            "IsForLead": false,
                            "IsForOportunity": false,
                            "IsSelected": false,
                            "MainId": 4,
                            "Name": "1 Day",
                            "Subject": null
                        },
                        {
                            "AllCustomField": null,
                            "BodyContent": null,
                            "FieldName": null,
                            "FieldNameMaster": null,
                            "ID": 5,
                            "IsExisting": false,
                            "IsForAccount": false,
                            "IsForLead": false,
                            "IsForOportunity": false,
                            "IsSelected": false,
                            "MainId": 5,
                            "Name": "2 Day",
                            "Subject": null
                        },
                        {
                            "AllCustomField": null,
                            "BodyContent": null,
                            "FieldName": null,
                            "FieldNameMaster": null,
                            "ID": 6,
                            "IsExisting": false,
                            "IsForAccount": false,
                            "IsForLead": false,
                            "IsForOportunity": false,
                            "IsSelected": false,
                            "MainId": 6,
                            "Name": "1 Week",
                            "Subject": null
                        }
                    ]
                },
                {
                    "FieldDataType": "checkbox",
                    "FieldName": "Tick here to complete activity",
                    "FieldNameMaster": "IsActivityCompleted",
                    "ID": 4384,
                    "IsExisting": true,
                    "IsMandatory": false,
                    "IsVisible": true,
                    "Priority": null,
                    "Value": "0",
                    "dropDownValues": null
                }
            ],
            "ActivityID": 0,
            "ActivityTypeID": 0,
            "AssignedContactNameID": null,
            "AssignedTypeID": 2,
            "PendingActionID": 0,
            "ReScheduleReason": null
        },
        "CaseTemplate": {
            "AddedUserId": 0,
            "AssignedTo": 0,
            "AssignedToName": null,
            "CaseID": 0,
            "CasePriorityID": null,
            "CaseStatus": null,
            "CaseStatusID": null,
            "CaseType": null,
            "CaseTypeID": null,
            "CompanyID": 0,
            "CompanyName": null,
            "ContactID": 0,
            "ContactName": null,
            "Description": null,
            "LinkedProductId": null,
            "LinkedProductName": null,
            "PendingActionID": 0,
            "PriorityName": null,
            "SelectedAssignedCCIDsString": null,
            "SelectedContactIDsString": null,
            "Subject": null
        },
        "OpportunityTemplate": [],
        "QuoteTemplate": null,
        "QuoteTemplateDetails": {
            "BaseDBName": null,
            "BaseSubscriptionID": null,
            "BaseUserID": 0,
            "CustomEditId": 0,
            "FieldName": null,
            "Ip": null,
            "ObjID": 0,
            "SubscriptionType": null,
            "AccountID": 0,
            "AddedUserId": 0,
            "CompanyName": null,
            "ContactID": 0,
            "ContactName": null,
            "ContactType": null,
            "CreateDate": null,
            "CustomQuoteFields": null,
            "CustomQuoteProductFields": null,
            "CustomerID": 0,
            "IsDeleted": false,
            "IsDrafted": false,
            "LastUpdateDate": null,
            "LastViewDate": null,
            "NoLines": 0,
            "OpportunityID": 0,
            "OpportunityName": null,
            "OwnerID": 0,
            "OwnerName": null,
            "PendingActionID": 0,
            "QID": 0,
            "QuoteName": null,
            "QuoteNote": null,
            "QuoteNum": 0,
            "QuoteNumList": null,
            "QuoteProductList": null,
            "QuoteRecordAddress": null,
            "QuoteRef": null,
            "RecordType": null,
            "SalePersonName": null,
            "TotalPrice": 0,
            "UserID": 0
        }
    }
}